{"links": {"self": "https://sportplaces.api.decathlon.com/api/v1/places?origin=114.18645790000001%2C22.2811105&page=1&radius=2", "first": "https://sportplaces.api.decathlon.com/api/v1/places?origin=114.18645790000001%2C22.2811105&page=1&radius=2", "next": "https://sportplaces.api.decathlon.com/api/v1/places?origin=114.18645790000001%2C22.2811105&page=2&radius=2", "last": "https://sportplaces.api.decathlon.com/api/v1/places?origin=114.18645790000001%2C22.2811105&page=17&radius=2"}, "count": 161, "data": {"type": "FeatureCollection", "features": [{"type": "Feature", "properties": {"uuid": "6820e99f-67c9-47ad-a914-659349894e76", "name": "Under review, proposed: Fountain, Victoria park", "slug": "fountain-victoria-park", "proximity": 0.13215183752, "user": {"identifier": "HRAKOT22", "first_name": "Heri", "last_name": "Heri", "ambassador": true, "staff": true, "admin": true}, "partner": null, "partner_identifier": null, "google_place_id": null, "contact_details": {"email": null, "phone": null, "website": null, "booking_url": null, "facebook_username": null}, "address_components": {"address": "Gloucester Road, Causeway Bay", "city": null, "postal_code": null, "province": null, "country": "CN"}, "activities": [{"sport_id": 81, "photo_reference": null, "booking_url": null, "title": null, "user": {"identifier": "HRAKOT22", "first_name": "Heri", "last_name": "Heri", "ambassador": true, "staff": true, "admin": true}, "image": null, "tags": [], "attributes": []}], "reviews": [], "notes": null, "photo_reference": null, "updated_at": "2020-06-22 20:48:16 UTC", "created_at": "2020-03-17 13:35:25 UTC", "attachments": [], "quality_indicator": 1, "featured": false, "featured_by": null}, "geometry": {"type": "Linestring", "coordinates": [[114.18765687796241, 22.280687299721876, 0.0], [114.1880245920546, 22.280935152598715, 0.0], [114.18844326811814, 22.280403320842368, 0.0], [114.18807563784492, 22.28015546796553, 0.0], [114.18765687796241, 22.280687299721876, 0.0]]}}, {"type": "Feature", "properties": {"uuid": "1c901abf-043d-4a14-abb9-314074ab2634", "name": "Under review, proposed: Fountain, Victoria park", "slug": "fountain-victoria-park-aec46448-b55f-4537-a214-09694cc0215a", "proximity": 0.13808808128, "user": {"identifier": "HRAKOT22", "first_name": "Heri", "last_name": "Heri", "ambassador": true, "staff": true, "admin": true}, "partner": null, "partner_identifier": null, "google_place_id": null, "contact_details": {"email": null, "phone": null, "website": null, "booking_url": null, "facebook_username": null}, "address_components": {"address": "Gloucester Road, Causeway Bay", "city": null, "postal_code": null, "province": null, "country": "CN"}, "activities": [{"sport_id": 257, "photo_reference": null, "booking_url": null, "title": null, "user": {"identifier": "HRAKOT22", "first_name": "Heri", "last_name": "Heri", "ambassador": true, "staff": true, "admin": true}, "image": null, "tags": [], "attributes": []}], "reviews": [], "notes": null, "photo_reference": null, "updated_at": "2020-06-22 20:48:40 UTC", "created_at": "2020-03-17 13:37:58 UTC", "attachments": [], "quality_indicator": 2, "featured": false, "featured_by": null}, "geometry": {"type": "Linestring", "coordinates": [[114.18779593373603, 22.281176551410113, 0.0], [114.18784312385088, 22.28121217449862, 0.0], [114.18789081687993, 22.281253916376414, 0.0], [114.18792224901688, 22.281276044600787, 0.0], [114.18795225623023, 22.2812943171497, 0.0], [114.1879796650536, 22.281306722366395, 0.0], [114.18800061981153, 22.281320468687625, 0.0], [114.18805267143023, 22.281361372375102, 0.0], [114.18821536417084, 22.28147075621152, 0.0], [114.18824042606133, 22.28148936403656, 0.0], [114.18825945298153, 22.281506882214188, 0.0], [114.18828308994847, 22.28153286611402, 0.0], [114.18829826119321, 22.28155449142423, 0.0], [114.18831888067501, 22.281577541657953, 0.0], [114.18834436166065, 22.281597071492342, 0.0], [114.18843564058625, 22.281658762299685, 0.0], [114.188543348042, 22.28173084666699, 0.0], [114.18886102217232, 22.281926647925133, 0.0], [114.18887535522674, 22.281933940180892, 0.0], [114.18888993973826, 22.281938969322795, 0.0], [114.18890678736363, 22.281943244093412, 0.0], [114.18892212624644, 22.281945255750173, 0.0], [114.18897727916931, 22.28194659685468, 0.0], [114.1889928695092, 22.281949781977886, 0.0], [114.18901466245745, 22.2819577447859, 0.0], [114.1890396405289, 22.281968389802927, 0.0], [114.18906294221972, 22.281982136124128, 0.0], [114.18908012512122, 22.281994289883727, 0.0], [114.18909856530826, 22.28201055077588, 0.0], [114.18911859805684, 22.282033265733503, 0.0], [114.18912899161677, 22.28204835315921, 0.0], [114.18913863080542, 22.28206545224168, 0.0], [114.1891446657757, 22.282081796952866, 0.0], [114.18914734798471, 22.282102164977573, 0.0], [114.18914449813764, 22.282118928783916, 0.0], [114.189137541158, 22.282136446961545, 0.0], [114.18912815342645, 22.282156563529185, 0.0], [114.18910904268722, 22.282190342598966, 0.0], [114.18908364552055, 22.282228061163238, 0.0], [114.18906746844743, 22.282250524663738, 0.0], [114.18903679068183, 22.28228975197061, 0.0], [114.18898247594927, 22.282336355352243, 0.0], [114.18894651758467, 22.282402153292168, 0.0], [114.18868516984372, 22.282735417762325, 0.0], [114.188672680808, 22.282745643684194, 0.0], [114.18865918594389, 22.28275477995865, 0.0], [114.18864183540433, 22.282762826585724, 0.0], [114.18861635441868, 22.28277137612696, 0.0], [114.1885745287218, 22.282776992002084, 0.0], [114.18851753178024, 22.2827778301924, 0.0], [114.18846573161863, 22.282766430804088, 0.0], [114.18841217125737, 22.282748074436114, 0.0], [114.18838643881463, 22.28273617213361, 0.0], [114.18835634778219, 22.282717983403728, 0.0], [114.18832885513979, 22.282697196283863, 0.0], [114.18774991708761, 22.282304252663096, 0.0], [114.18767498287326, 22.282253458329848, 0.0], [114.18752125876904, 22.282169639298132, 0.0], [114.18748957517505, 22.28214935509243, 0.0], [114.1873410478508, 22.28204969426372, 0.0], [114.18732788826281, 22.28203988743701, 0.0], [114.18731782997901, 22.28203058352446, 0.0], [114.18729327100272, 22.282001163044328, 0.0], [114.18727667483444, 22.28197643642997, 0.0], [114.18726217414195, 22.28195045253014, 0.0], [114.1872477572685, 22.281922456973547, 0.0], [114.1872337594902, 22.281907788642968, 0.0], [114.1872128885513, 22.281892449760164, 0.0], [114.18719394545013, 22.281884654590215, 0.0], [114.18716645280767, 22.28187912253412, 0.0], [114.1871511977439, 22.281879290172185, 0.0], [114.18711875977863, 22.281884235495056, 0.0], [114.18710752802838, 22.281883229666676, 0.0], [114.18709453607846, 22.281877446153487, 0.0], [114.18708078975726, 22.28186789078387, 0.0], [114.18704013752688, 22.28183897321793, 0.0], [114.18697928490985, 22.281802092843975, 0.0], [114.18695229518164, 22.28178122190505, 0.0], [114.18693419027079, 22.281759931870994, 0.0], [114.18691709118826, 22.281735037618574, 0.0], [114.18690904456122, 22.28171668125063, 0.0], [114.18690384778125, 22.281697989606556, 0.0], [114.1869015846674, 22.28167812449604, 0.0], [114.18690183612449, 22.281644680702357, 0.0], [114.1869045183335, 22.281632946037917, 0.0], [114.18690929601831, 22.28162087609735, 0.0], [114.18692212033017, 22.281596065663962, 0.0], [114.18693066987146, 22.281583995723395, 0.0], [114.1869442485546, 22.281567483374147, 0.0], [114.18696025798965, 22.28155055192974, 0.0], [114.1869783629005, 22.281535967418193, 0.0], [114.18699705454458, 22.281523394563436, 0.0], [114.1870335996424, 22.281505876385808, 0.0], [114.18705279420067, 22.281499338501334, 0.0], [114.18706369067479, 22.281497326844573, 0.0], [114.18707592825342, 22.28149472845459, 0.0], [114.1870893392985, 22.28149036986494, 0.0], [114.18711834068347, 22.281472935506343, 0.0], [114.18713074590016, 22.281460781746745, 0.0], [114.18714348639298, 22.28144007844591, 0.0], [114.18715153302003, 22.281421722077937, 0.0], [114.18716502788413, 22.281395319082947, 0.0], [114.18718656937534, 22.28136573096475, 0.0], [114.18721339146549, 22.281339160331697, 0.0], [114.1872509423917, 22.28131334406993, 0.0], [114.18729184607918, 22.28129423333067, 0.0], [114.18732562514896, 22.281286186703625, 0.0], [114.18734523880238, 22.281282917761388, 0.0], [114.18736728320772, 22.281281325199785, 0.0], [114.187394440574, 22.28128258248526, 0.0], [114.1874042474007, 22.281281157561722, 0.0], [114.18741422186554, 22.281277553343358, 0.0], [114.1874384455657, 22.281265148126664, 0.0], [114.18744724656403, 22.28125953225154, 0.0], [114.18747214081645, 22.281239750960054, 0.0], [114.18749158683181, 22.281217371278586, 0.0], [114.18750198039174, 22.28120094274837, 0.0], [114.1875095241046, 22.28118275401846, 0.0], [114.18753005976737, 22.2811133518602, 0.0], [114.18753793875635, 22.281095666044507, 0.0], [114.18755126598239, 22.281084434294257, 0.0], [114.18756987380743, 22.281076555305276, 0.0], [114.1875940975076, 22.28107387309626, 0.0], [114.18761857266486, 22.281076387667213, 0.0], [114.18764522711695, 22.281085272484574, 0.0], [114.18770473862952, 22.281123493963037, 0.0], [114.18779593373603, 22.281176551410113, 0.0]]}}, {"type": "Feature", "properties": {"uuid": "8eb31648-7ba1-485a-a192-9f79ae11f64c", "name": "Under review, proposed: \u5e74\u5bb5\u5e02\u5834", "slug": "06a16643-4a06-430d-b2bc-297ce9916f93", "proximity": 0.16681398487, "user": {"identifier": "HRAKOT22", "first_name": "Heri", "last_name": "Heri", "ambassador": true, "staff": true, "admin": true}, "partner": null, "partner_identifier": null, "google_place_id": null, "contact_details": {"email": null, "phone": null, "website": null, "booking_url": null, "facebook_username": null}, "address_components": {"address": "Causeway Bay", "city": null, "postal_code": null, "province": null, "country": "CN"}, "activities": [{"sport_id": 81, "photo_reference": null, "booking_url": null, "title": null, "user": {"identifier": "HRAKOT22", "first_name": "Heri", "last_name": "Heri", "ambassador": true, "staff": true, "admin": true}, "image": null, "tags": [], "attributes": []}], "reviews": [], "notes": null, "photo_reference": null, "updated_at": "2020-06-22 20:48:16 UTC", "created_at": "2020-03-17 13:35:26 UTC", "attachments": [], "quality_indicator": 0, "featured": false, "featured_by": null}, "geometry": {"type": "Linestring", "coordinates": [[114.18806926759851, 22.28096775820208, 0.0], [114.18843765224301, 22.281216449269238, 0.0], [114.18885708267783, 22.280684449874798, 0.0], [114.18848869803332, 22.28043575880764, 0.0], [114.18806926759851, 22.28096775820208, 0.0]]}}, {"type": "Feature", "properties": {"uuid": "85a757e2-5d36-4dbf-94b3-177c6765b402", "name": "Under review, proposed: Victoria Park Football Field", "slug": "victoria-park-football-field", "proximity": 0.20948981142, "user": {"identifier": "HRAKOT22", "first_name": "Heri", "last_name": "Heri", "ambassador": true, "staff": true, "admin": true}, "partner": null, "partner_identifier": null, "google_place_id": null, "contact_details": {"email": null, "phone": null, "website": null, "booking_url": null, "facebook_username": null}, "address_components": {"address": "Causeway Bay", "city": null, "postal_code": null, "province": null, "country": "CN"}, "activities": [{"sport_id": 81, "photo_reference": null, "booking_url": null, "title": null, "user": {"identifier": "HRAKOT22", "first_name": "Heri", "last_name": "Heri", "ambassador": true, "staff": true, "admin": true}, "image": null, "tags": [], "attributes": []}], "reviews": [], "notes": null, "photo_reference": null, "updated_at": "2020-06-22 20:48:16 UTC", "created_at": "2020-03-17 13:35:29 UTC", "attachments": [], "quality_indicator": 1, "featured": false, "featured_by": null}, "geometry": {"type": "Linestring", "coordinates": [[114.18848517763399, 22.281249222510638, 0.0], [114.18885247263103, 22.281497326844573, 0.0], [114.18927181924681, 22.280965662726288, 0.0], [114.18890452424978, 22.280717558392354, 0.0], [114.18848517763399, 22.281249222510638, 0.0]]}}, {"type": "Feature", "properties": {"uuid": "a602a556-7c2f-4e30-b1e0-deed39979004", "name": "Under review, proposed: Victoria Park", "slug": "victoria-park-7eb98bdd-0e52-46ee-b570-c41839d26a93", "proximity": 0.23929388616, "user": {"identifier": "HRAKOT22", "first_name": "Heri", "last_name": "Heri", "ambassador": true, "staff": true, "admin": true}, "partner": null, "partner_identifier": null, "google_place_id": null, "contact_details": {"email": null, "phone": null, "website": null, "booking_url": null, "facebook_username": null}, "address_components": {"address": "1 Hing Fat Street, Causeway Bay", "city": null, "postal_code": null, "province": null, "country": "CN"}, "activities": [{"sport_id": 109, "photo_reference": null, "booking_url": null, "title": null, "user": {"identifier": "HRAKOT22", "first_name": "Heri", "last_name": "Heri", "ambassador": true, "staff": true, "admin": true}, "image": null, "tags": [], "attributes": []}], "reviews": [], "notes": null, "photo_reference": null, "updated_at": "2020-06-22 20:48:36 UTC", "created_at": "2020-03-17 13:37:36 UTC", "attachments": [], "quality_indicator": 1, "featured": false, "featured_by": null}, "geometry": {"type": "Linestring", "coordinates": [[114.18865918594389, 22.281798069530453, 0.0], [114.18855885456287, 22.28172749390572, 0.0], [114.18868248763471, 22.28157008176413, 0.0], [114.18878709378629, 22.281641998493342, 0.0], [114.18865918594389, 22.281798069530453, 0.0]]}}, {"type": "Feature", "properties": {"uuid": "f38dad4b-5be8-426a-83a6-2c8b9cf6c506", "name": "8five2shop", "slug": "8five2shop", "proximity": 0.25543880881, "user": {"identifier": "HRAKOT22", "first_name": "Heri", "last_name": "Heri", "ambassador": true, "staff": true, "admin": true}, "partner": null, "partner_identifier": null, "google_place_id": "ChIJVxe_8lYABDQRconxs0Gwkm4", "contact_details": {"email": null, "phone": null, "website": null, "booking_url": null, "facebook_username": null}, "address_components": {"address": "526 Jaffe Road", "city": "Causeway Bay", "postal_code": null, "province": "Hong Kong Island", "country": "CN"}, "activities": [{"sport_id": 171, "photo_reference": null, "booking_url": null, "title": null, "user": {"identifier": "HRAKOT22", "first_name": "Heri", "last_name": "Heri", "ambassador": true, "staff": true, "admin": true}, "image": null, "tags": [], "attributes": []}], "reviews": [], "notes": null, "photo_reference": null, "updated_at": "2020-06-22 20:40:00 UTC", "created_at": "2020-03-17 01:31:42 UTC", "attachments": [], "quality_indicator": 2, "featured": false, "featured_by": null}, "geometry": {"type": "Point", "coordinates": [114.18398552055334, 22.28105216396702, 0.0]}}, {"type": "Feature", "properties": {"uuid": "e964482d-b00e-417d-9ae7-ff047c2edf67", "name": "Fitness First Platinum", "slug": "fitness-first-platinum", "proximity": 0.26067676768, "user": {"identifier": "HRAKOT22", "first_name": "Heri", "last_name": "Heri", "ambassador": true, "staff": true, "admin": true}, "partner": null, "partner_identifier": null, "google_place_id": null, "contact_details": {"email": null, "phone": null, "website": null, "booking_url": null, "facebook_username": null}, "address_components": {"address": null, "city": null, "postal_code": null, "province": null, "country": "CN"}, "activities": [{"sport_id": 93, "photo_reference": null, "booking_url": null, "title": null, "user": {"identifier": "HRAKOT22", "first_name": "Heri", "last_name": "Heri", "ambassador": true, "staff": true, "admin": true}, "image": null, "tags": [], "attributes": []}, {"sport_id": 78, "photo_reference": null, "booking_url": null, "title": null, "user": {"identifier": "HRAKOT22", "first_name": "Heri", "last_name": "Heri", "ambassador": true, "staff": true, "admin": true}, "image": null, "tags": [], "attributes": []}, {"sport_id": 96, "photo_reference": null, "booking_url": null, "title": null, "user": {"identifier": "HRAKOT22", "first_name": "Heri", "last_name": "Heri", "ambassador": true, "staff": true, "admin": true}, "image": null, "tags": [], "attributes": []}, {"sport_id": 726, "photo_reference": null, "booking_url": null, "title": null, "user": {"identifier": "HRAKOT22", "first_name": "Heri", "last_name": "Heri", "ambassador": true, "staff": true, "admin": true}, "image": null, "tags": [], "attributes": []}, {"sport_id": 109, "photo_reference": null, "booking_url": null, "title": null, "user": {"identifier": "HRAKOT22", "first_name": "Heri", "last_name": "Heri", "ambassador": true, "staff": true, "admin": true}, "image": null, "tags": [], "attributes": []}], "reviews": [], "notes": null, "photo_reference": null, "updated_at": "2020-07-02 15:19:26 UTC", "created_at": "2020-04-24 21:18:15 UTC", "attachments": [], "quality_indicator": 1, "featured": false, "featured_by": null}, "geometry": {"type": "Point", "coordinates": [114.18393489385818, 22.28127822389561, 0.0]}}, {"type": "Feature", "properties": {"uuid": "597dda40-d794-4f36-bafa-d345a3022fa1", "name": "Under review, proposed: \u5510\u4eba\u533b\u7597", "slug": "be3aa3a8-0619-4c71-9615-e309300dec86", "proximity": 0.28320956698, "user": {"identifier": "HRAKOT22", "first_name": "Heri", "last_name": "Heri", "ambassador": true, "staff": true, "admin": true}, "partner": null, "partner_identifier": null, "google_place_id": null, "contact_details": {"email": null, "phone": null, "website": null, "booking_url": null, "facebook_username": null}, "address_components": {"address": "Unnamed Road, Causeway Bay", "city": null, "postal_code": null, "province": null, "country": "CN"}, "activities": [{"sport_id": 81, "photo_reference": null, "booking_url": null, "title": null, "user": {"identifier": "HRAKOT22", "first_name": "Heri", "last_name": "Heri", "ambassador": true, "staff": true, "admin": true}, "image": null, "tags": [], "attributes": []}], "reviews": [], "notes": null, "photo_reference": null, "updated_at": "2020-06-22 20:48:16 UTC", "created_at": "2020-03-17 13:35:27 UTC", "attachments": [], "quality_indicator": 0, "featured": false, "featured_by": null}, "geometry": {"type": "Linestring", "coordinates": [[114.18913452367286, 22.28168994297951, 0.0], [114.18950374650763, 22.28193829877054, 0.0], [114.18992158438084, 22.2814062993761, 0.0], [114.18955236154602, 22.28115794358507, 0.0], [114.18913452367286, 22.28168994297951, 0.0]]}}, {"type": "Feature", "properties": {"uuid": "a002a006-c3b1-4506-8390-394d1f85857d", "name": "Under review, proposed: Victoria Park", "slug": "victoria-park-6ee5bcd2-e6a4-4e2a-a019-d984904729de", "proximity": 0.31205633706, "user": {"identifier": "HRAKOT22", "first_name": "Heri", "last_name": "Heri", "ambassador": true, "staff": true, "admin": true}, "partner": null, "partner_identifier": null, "google_place_id": null, "contact_details": {"email": null, "phone": null, "website": null, "booking_url": null, "facebook_username": null}, "address_components": {"address": "1 Hing Fat Street, Causeway Bay", "city": null, "postal_code": null, "province": null, "country": "CN"}, "activities": [{"sport_id": 134, "photo_reference": null, "booking_url": null, "title": null, "user": {"identifier": "HRAKOT22", "first_name": "Heri", "last_name": "Heri", "ambassador": true, "staff": true, "admin": true}, "image": null, "tags": [], "attributes": []}], "reviews": [], "notes": null, "photo_reference": null, "updated_at": "2020-06-22 20:48:17 UTC", "created_at": "2020-03-17 13:35:39 UTC", "attachments": [], "quality_indicator": 1, "featured": false, "featured_by": null}, "geometry": {"type": "Linestring", "coordinates": [[114.18900728638266, 22.28263106306781, 0.0], [114.18909906822245, 22.282691580408738, 0.0], [114.18923644761543, 22.28251312969016, 0.0], [114.1891446657757, 22.282452696168292, 0.0], [114.18900728638266, 22.28263106306781, 0.0]]}}, {"type": "Feature", "properties": {"uuid": "5416879f-8217-4c48-b616-024cfcc8035b", "name": "Under review, proposed: Children's Playground", "slug": "children-s-playground-0c2c1ffe-df63-4da4-aa37-34da9f7dd093", "proximity": 0.31220140051, "user": {"identifier": "HRAKOT22", "first_name": "Heri", "last_name": "Heri", "ambassador": true, "staff": true, "admin": true}, "partner": null, "partner_identifier": null, "google_place_id": null, "contact_details": {"email": null, "phone": null, "website": null, "booking_url": null, "facebook_username": null}, "address_components": {"address": "Causeway Bay", "city": null, "postal_code": null, "province": null, "country": "CN"}, "activities": [{"sport_id": 134, "photo_reference": null, "booking_url": null, "title": null, "user": {"identifier": "HRAKOT22", "first_name": "Heri", "last_name": "Heri", "ambassador": true, "staff": true, "admin": true}, "image": null, "tags": [], "attributes": []}], "reviews": [], "notes": null, "photo_reference": null, "updated_at": "2020-06-22 20:48:17 UTC", "created_at": "2020-03-17 13:35:41 UTC", "attachments": [], "quality_indicator": 1, "featured": false, "featured_by": null}, "geometry": {"type": "Linestring", "coordinates": [[114.18878332192986, 22.282917472699268, 0.0], [114.18887527140771, 22.282978073859198, 0.0], [114.18901273461972, 22.282799623140647, 0.0], [114.18892095278, 22.28273902198069, 0.0], [114.18878332192986, 22.282917472699268, 0.0]]}}]}}