{"links": {"self": "https://sportplaces.api.decathlon.com/api/v1/places?origin=114.1874624%2C22.37969572&page=1&radius=2", "first": "https://sportplaces.api.decathlon.com/api/v1/places?origin=114.1874624%2C22.37969572&page=1&radius=2", "next": "https://sportplaces.api.decathlon.com/api/v1/places?origin=114.1874624%2C22.37969572&page=2&radius=2", "last": "https://sportplaces.api.decathlon.com/api/v1/places?origin=114.1874624%2C22.37969572&page=18&radius=2"}, "count": 171, "data": {"type": "FeatureCollection", "features": [{"type": "Feature", "properties": {"uuid": "34428319-55d0-4bcc-a42c-2dffdf7b1d77", "name": "Under review, proposed: \u7267\u7f8a\u5c11\u5e74\u5496\u5561\u00b7\u6162\u905e\u9928", "slug": "caa45859-0cd4-4e6f-a5c9-8704383c6960", "proximity": 0.445793071, "user": {"identifier": "HRAKOT22", "first_name": "Heri", "last_name": "Heri", "ambassador": true, "staff": true, "admin": true}, "partner": null, "partner_identifier": null, "google_place_id": null, "contact_details": {"email": null, "phone": null, "website": null, "booking_url": null, "facebook_username": null}, "address_components": {"address": "\u6587\u6797\u8def1\u865f, \u9999\u6e2f\u6587\u5316\u535a\u7269\u9928, G6\u865f\u8216, Sha Tin", "city": null, "postal_code": null, "province": null, "country": "CN"}, "activities": [{"sport_id": 78, "photo_reference": null, "booking_url": null, "title": null, "user": {"identifier": "HRAKOT22", "first_name": "Heri", "last_name": "Heri", "ambassador": true, "staff": true, "admin": true}, "image": null, "tags": [], "attributes": []}], "reviews": [], "notes": null, "photo_reference": null, "updated_at": "2020-06-22 20:41:27 UTC", "created_at": "2020-03-17 02:21:05 UTC", "attachments": [], "quality_indicator": 1, "featured": false, "featured_by": null}, "geometry": {"type": "Linestring", "coordinates": [[114.18507416213754, 22.37633814215772, 0.0], [114.18501599172953, 22.37645993121083, 0.0], [114.18477048578558, 22.37635976746793, 0.0], [114.18482857237456, 22.37623797841482, 0.0], [114.18507416213754, 22.37633814215772, 0.0]]}}, {"type": "Feature", "properties": {"uuid": "bdf28a7b-367d-4433-928e-b6b244237187", "name": "Tsang Tai Uk Recreation Ground", "slug": "tsang-tai-uk-recreation-ground", "proximity": 0.4742465778, "user": {"identifier": "d841cbdf-529b-4b87-b3dc-222857338d6d", "first_name": "JULES", "last_name": "DE LEUSSE", "ambassador": true, "staff": true, "admin": false}, "partner": null, "partner_identifier": null, "google_place_id": "ChIJDbAL_qoHBDQRHtVyYag1KC8", "contact_details": {"email": null, "phone": null, "website": "http://w2.leisurelink.lcsd.gov.hk/index/index.jsp?lang=en", "booking_url": null, "facebook_username": null}, "address_components": {"address": "Sha Tin, Hong Kong", "city": "Sha Tin", "postal_code": null, "province": "New Territories", "country": "HK"}, "activities": [{"sport_id": 134, "photo_reference": "", "booking_url": null, "title": null, "user": {"identifier": "d841cbdf-529b-4b87-b3dc-222857338d6d", "first_name": "JULES", "last_name": "DE LEUSSE", "ambassador": true, "staff": true, "admin": false}, "image": null, "tags": ["floodlight", "changing_room", "shower", "water_fountain"], "attributes": [{"name": "type_of_place", "value": "public", "type": "String"}]}], "reviews": [], "notes": "Open to the public from 7 am to 11 pm. Tsang Tai Uk Recreation Ground offers 5 outdoor hard courts at hourly rates between HK$34 and HK$57. In addition to the tennis courts, it is equipped with 1 tennis practice court and 1 football pitch.", "photo_reference": null, "updated_at": "2020-06-22 18:26:37 UTC", "created_at": "2019-01-23 08:33:03 UTC", "attachments": [], "quality_indicator": 3, "featured": false, "featured_by": null}, "geometry": {"type": "Point", "coordinates": [114.18888, 22.375621, 0.0]}}, {"type": "Feature", "properties": {"uuid": "eabbfa62-dde8-49e4-ab95-134130bc086d", "name": "Under review, proposed: Eu Yan Sang \u4f59\u4ec1\u751f", "slug": "eu-yan-sang", "proximity": 0.50146946351, "user": {"identifier": "HRAKOT22", "first_name": "Heri", "last_name": "Heri", "ambassador": true, "staff": true, "admin": true}, "partner": null, "partner_identifier": null, "google_place_id": null, "contact_details": {"email": null, "phone": null, "website": null, "booking_url": null, "facebook_username": null}, "address_components": {"address": "No. 642, Level 6, Phase 1, New Town Plaza", "city": null, "postal_code": null, "province": null, "country": "CN"}, "activities": [{"sport_id": 81, "photo_reference": null, "booking_url": null, "title": null, "user": {"identifier": "HRAKOT22", "first_name": "Heri", "last_name": "Heri", "ambassador": true, "staff": true, "admin": true}, "image": null, "tags": [], "attributes": []}], "reviews": [], "notes": null, "photo_reference": null, "updated_at": "2020-06-22 20:41:26 UTC", "created_at": "2020-03-17 02:20:58 UTC", "attachments": [], "quality_indicator": 1, "featured": false, "featured_by": null}, "geometry": {"type": "Linestring", "coordinates": [[114.1897857975494, 22.375715953485155, 0.0], [114.1902651585919, 22.375345221907793, 0.0], [114.18962327244691, 22.374635358528025, 0.0], [114.18944909649895, 22.37477013953105, 0.0], [114.18921306210558, 22.374952697382184, 0.0], [114.18914382758538, 22.37500617392442, 0.0], [114.1897857975494, 22.375715953485155, 0.0]]}}, {"type": "Feature", "properties": {"uuid": "2db16de1-95e1-45fb-981d-89a6c8abb6d3", "name": "Under review, proposed: Saint Alfred's Church", "slug": "saint-alfred-s-church-b4f3cf70-ea1b-4c7b-88d9-d64a93f34959", "proximity": 0.503775103, "user": {"identifier": "HRAKOT22", "first_name": "Heri", "last_name": "Heri", "ambassador": true, "staff": true, "admin": true}, "partner": null, "partner_identifier": null, "google_place_id": null, "contact_details": {"email": null, "phone": null, "website": null, "booking_url": null, "facebook_username": null}, "address_components": {"address": "19-21 Man Lai Road, Tai Wai", "city": null, "postal_code": null, "province": null, "country": "CN"}, "activities": [{"sport_id": 78, "photo_reference": null, "booking_url": null, "title": null, "user": {"identifier": "HRAKOT22", "first_name": "Heri", "last_name": "Heri", "ambassador": true, "staff": true, "admin": true}, "image": null, "tags": [], "attributes": []}], "reviews": [], "notes": null, "photo_reference": null, "updated_at": "2020-06-22 20:48:02 UTC", "created_at": "2020-03-17 13:33:35 UTC", "attachments": [], "quality_indicator": 1, "featured": false, "featured_by": null}, "geometry": {"type": "Linestring", "coordinates": [[114.18393807898138, 22.376540816576465, 0.0], [114.18383657413398, 22.37674097642426, 0.0], [114.18395576479708, 22.376792525128764, 0.0], [114.18401854525183, 22.37666864059986, 0.0], [114.18405718582551, 22.376592449100002, 0.0], [114.18393807898138, 22.376540816576465, 0.0]]}}, {"type": "Feature", "properties": {"uuid": "ee1d3b75-add6-4c2d-8725-4039927b0beb", "name": "Under review, proposed: Saint Alfred's Church", "slug": "saint-alfred-s-church", "proximity": 0.50492227322, "user": {"identifier": "HRAKOT22", "first_name": "Heri", "last_name": "Heri", "ambassador": true, "staff": true, "admin": true}, "partner": null, "partner_identifier": null, "google_place_id": null, "contact_details": {"email": null, "phone": null, "website": null, "booking_url": null, "facebook_username": null}, "address_components": {"address": "19-21 Man Lai Road, Tai Wai", "city": null, "postal_code": null, "province": null, "country": "CN"}, "activities": [{"sport_id": 78, "photo_reference": null, "booking_url": null, "title": null, "user": {"identifier": "HRAKOT22", "first_name": "Heri", "last_name": "Heri", "ambassador": true, "staff": true, "admin": true}, "image": null, "tags": [], "attributes": []}], "reviews": [], "notes": null, "photo_reference": null, "updated_at": "2020-06-22 20:41:27 UTC", "created_at": "2020-03-17 02:21:07 UTC", "attachments": [], "quality_indicator": 1, "featured": false, "featured_by": null}, "geometry": {"type": "Linestring", "coordinates": [[114.18392609285985, 22.376537463815197, 0.0], [114.18380044813131, 22.376484154911026, 0.0], [114.18370137403576, 22.376683895663632, 0.0], [114.1838268511263, 22.3767371207488, 0.0], [114.18392609285985, 22.376537463815197, 0.0]]}}, {"type": "Feature", "properties": {"uuid": "5a03ff75-878d-4221-b258-afb461666088", "name": "Under review, proposed: Zenith Kindergarten (Shatin)", "slug": "zenith-kindergarten-shatin", "proximity": 0.51225556879, "user": {"identifier": "HRAKOT22", "first_name": "Heri", "last_name": "Heri", "ambassador": true, "staff": true, "admin": true}, "partner": null, "partner_identifier": null, "google_place_id": null, "contact_details": {"email": null, "phone": null, "website": null, "booking_url": null, "facebook_username": null}, "address_components": {"address": "\u6eb1 \u5cb8 \uff18 \u865f \u5730\u4e0b, Che Kung Miu Road, Tai Wai", "city": null, "postal_code": null, "province": null, "country": "CN"}, "activities": [{"sport_id": 224, "photo_reference": null, "booking_url": null, "title": null, "user": {"identifier": "HRAKOT22", "first_name": "Heri", "last_name": "Heri", "ambassador": true, "staff": true, "admin": true}, "image": null, "tags": [], "attributes": []}], "reviews": [], "notes": null, "photo_reference": null, "updated_at": "2020-06-22 20:48:00 UTC", "created_at": "2020-03-17 13:33:15 UTC", "attachments": [], "quality_indicator": 1, "featured": false, "featured_by": null}, "geometry": {"type": "Linestring", "coordinates": [[114.18634988780053, 22.375186971575886, 0.0], [114.18629968020053, 22.375154785067707, 0.0], [114.18624176124962, 22.37510449364865, 0.0], [114.18631736601623, 22.37502629049203, 0.0], [114.186451392648, 22.37506845146501, 0.0], [114.18654367740191, 22.37508831657553, 0.0], [114.18672405595822, 22.37508647255683, 0.0], [114.1867271572624, 22.37512058690274, 0.0], [114.1867784545098, 22.375114971027614, 0.0], [114.1867097229038, 22.375170878321796, 0.0], [114.18664928938188, 22.37518127188173, 0.0], [114.18634988780053, 22.375186971575886, 0.0]]}}, {"type": "Feature", "properties": {"uuid": "2b76f672-271c-4116-8372-1164fcd3ecd5", "name": "Under review, proposed: \u5927\u570d\u9285\u947c\u7063\u9053\u4e8c\u5206\u4e00\u7c43\u7403\u5834", "slug": "c5dfc10a-a2a1-461a-8c84-62615f538a66", "proximity": 0.51302140229, "user": {"identifier": "HRAKOT22", "first_name": "Heri", "last_name": "Heri", "ambassador": true, "staff": true, "admin": true}, "partner": null, "partner_identifier": null, "google_place_id": null, "contact_details": {"email": null, "phone": null, "website": null, "booking_url": null, "facebook_username": null}, "address_components": {"address": "Tai Wai", "city": null, "postal_code": null, "province": null, "country": "CN"}, "activities": [{"sport_id": 78, "photo_reference": null, "booking_url": null, "title": null, "user": {"identifier": "HRAKOT22", "first_name": "Heri", "last_name": "Heri", "ambassador": true, "staff": true, "admin": true}, "image": null, "tags": [], "attributes": []}], "reviews": [], "notes": null, "photo_reference": null, "updated_at": "2020-06-22 20:48:01 UTC", "created_at": "2020-03-17 13:33:25 UTC", "attachments": [], "quality_indicator": 1, "featured": false, "featured_by": null}, "geometry": {"type": "Linestring", "coordinates": [[114.18286092060458, 22.377920980753004, 0.0], [114.18306015844297, 22.377980743722645, 0.0], [114.18310424725371, 22.377855098994075, 0.0], [114.1829050932343, 22.377795252205402, 0.0], [114.18286092060458, 22.377920980753004, 0.0]]}}, {"type": "Feature", "properties": {"uuid": "3c715df4-8b89-4bbc-a2cb-2f76fbd8a227", "name": "Under review, proposed: Tennis Court", "slug": "tennis-court-2745268e-c3d1-4107-aff6-2634fbe73e52", "proximity": 0.5348117113, "user": {"identifier": "HRAKOT22", "first_name": "Heri", "last_name": "Heri", "ambassador": true, "staff": true, "admin": true}, "partner": null, "partner_identifier": null, "google_place_id": null, "contact_details": {"email": null, "phone": null, "website": null, "booking_url": null, "facebook_username": null}, "address_components": {"address": "22\u00b022'29. 114\u00b011'19., 9, Ting Kau", "city": null, "postal_code": null, "province": null, "country": "CN"}, "activities": [{"sport_id": 134, "photo_reference": null, "booking_url": null, "title": null, "user": {"identifier": "HRAKOT22", "first_name": "Heri", "last_name": "Heri", "ambassador": true, "staff": true, "admin": true}, "image": null, "tags": [], "attributes": []}], "reviews": [], "notes": null, "photo_reference": null, "updated_at": "2020-06-22 20:41:27 UTC", "created_at": "2020-03-17 02:20:59 UTC", "attachments": [], "quality_indicator": 1, "featured": false, "featured_by": null}, "geometry": {"type": "Linestring", "coordinates": [[114.18894383537565, 22.375066775084377, 0.0], [114.18906017619167, 22.374980190024587, 0.0], [114.18926352116267, 22.37521362602797, 0.0], [114.18914726416568, 22.375300378725825, 0.0], [114.18894383537565, 22.375066775084377, 0.0]]}}, {"type": "Feature", "properties": {"uuid": "55264972-a7e1-4cce-8b10-c0a6615c9ddb", "name": "Under review, proposed: Franciscan Missionary Sisters of Our Lady of Sorrows", "slug": "franciscan-missionary-sisters-of-our-lady-of-sorrows-8f816e2b-2c87-4c07-8f38-54ddac37c54d", "proximity": 0.56676771034, "user": {"identifier": "HRAKOT22", "first_name": "Heri", "last_name": "Heri", "ambassador": true, "staff": true, "admin": true}, "partner": null, "partner_identifier": null, "google_place_id": null, "contact_details": {"email": null, "phone": null, "website": null, "booking_url": null, "facebook_username": null}, "address_components": {"address": "27-29 Man Lai Road, Tai Wai", "city": null, "postal_code": null, "province": null, "country": "CN"}, "activities": [{"sport_id": 78, "photo_reference": null, "booking_url": null, "title": null, "user": {"identifier": "HRAKOT22", "first_name": "Heri", "last_name": "Heri", "ambassador": true, "staff": true, "admin": true}, "image": null, "tags": [], "attributes": []}], "reviews": [], "notes": null, "photo_reference": null, "updated_at": "2020-06-22 20:48:01 UTC", "created_at": "2020-03-17 13:33:29 UTC", "attachments": [], "quality_indicator": 1, "featured": false, "featured_by": null}, "geometry": {"type": "Linestring", "coordinates": [[114.18340633104407, 22.37623646967222, 0.0], [114.18350909317695, 22.376040584595074, 0.0], [114.18361721972792, 22.376089031995406, 0.0], [114.18351445759498, 22.37628491707258, 0.0], [114.18340633104407, 22.37623646967222, 0.0]]}}, {"type": "Feature", "properties": {"uuid": "60d6d7e6-aacc-4581-bed8-76cdfaebaae1", "name": "Under review, proposed: Tennis Court", "slug": "tennis-court-9c705815-ee8d-4376-b060-8acdbe8f66e0", "proximity": 0.56781263715, "user": {"identifier": "HRAKOT22", "first_name": "Heri", "last_name": "Heri", "ambassador": true, "staff": true, "admin": true}, "partner": null, "partner_identifier": null, "google_place_id": null, "contact_details": {"email": null, "phone": null, "website": null, "booking_url": null, "facebook_username": null}, "address_components": {"address": "22\u00b022'29. 114\u00b011'19., 9, Ting Kau", "city": null, "postal_code": null, "province": null, "country": "CN"}, "activities": [{"sport_id": 134, "photo_reference": null, "booking_url": null, "title": null, "user": {"identifier": "HRAKOT22", "first_name": "Heri", "last_name": "Heri", "ambassador": true, "staff": true, "admin": true}, "image": null, "tags": [], "attributes": []}], "reviews": [], "notes": null, "photo_reference": null, "updated_at": "2020-06-22 20:41:26 UTC", "created_at": "2020-03-17 02:20:54 UTC", "attachments": [], "quality_indicator": 1, "featured": false, "featured_by": null}, "geometry": {"type": "Linestring", "coordinates": [[114.18901994305645, 22.37477692887262, 0.0], [114.18912413011293, 22.374895365164463, 0.0], [114.18891433107649, 22.375053364039303, 0.0], [114.18886823060905, 22.375088065118433, 0.0], [114.18876404355257, 22.374969796464654, 0.0], [114.18901994305645, 22.37477692887262, 0.0]]}}]}}