{"links": {"self": "https://sportplaces.api.decathlon.com/api/v1/places?origin=114.16930259999998%2C22.31826406&page=1&radius=2", "first": "https://sportplaces.api.decathlon.com/api/v1/places?origin=114.16930259999998%2C22.31826406&page=1&radius=2", "next": "https://sportplaces.api.decathlon.com/api/v1/places?origin=114.16930259999998%2C22.31826406&page=2&radius=2", "last": "https://sportplaces.api.decathlon.com/api/v1/places?origin=114.16930259999998%2C22.31826406&page=28&radius=2"}, "count": 274, "data": {"type": "FeatureCollection", "features": [{"type": "Feature", "properties": {"uuid": "cfd54826-00a8-4c7a-b109-ade8477219dd", "name": "APS\u6c7d\u8eca\u97f3\u97ff\u7cbe\u54c1\u5e97", "slug": "aps", "proximity": 0.29285336543, "user": {"identifier": "HRAKOT22", "first_name": "Heri", "last_name": "Heri", "ambassador": true, "staff": true, "admin": true}, "partner": null, "partner_identifier": null, "google_place_id": null, "contact_details": {"email": null, "phone": null, "website": null, "booking_url": null, "facebook_username": null}, "address_components": {"address": "\u5730\u4e0b, 19B \u5976\u8def\u81e3\u8857, \u65fa\u89d2", "city": null, "postal_code": null, "province": null, "country": "CN"}, "activities": [{"sport_id": 81, "photo_reference": null, "booking_url": null, "title": null, "user": {"identifier": "HRAKOT22", "first_name": "Heri", "last_name": "Heri", "ambassador": true, "staff": true, "admin": true}, "image": null, "tags": [], "attributes": []}], "reviews": [], "notes": null, "photo_reference": null, "updated_at": "2020-06-22 21:20:08 UTC", "created_at": "2020-03-17 18:07:30 UTC", "attachments": [], "quality_indicator": 1, "featured": false, "featured_by": null}, "geometry": {"type": "Linestring", "coordinates": [[114.17210719029003, 22.318694033833793, 0.0], [114.17223317029476, 22.318096571775584, 0.0], [114.1726208333165, 22.318166560667095, 0.0], [114.1724947694928, 22.318764022725304, 0.0], [114.17210719029003, 22.318694033833793, 0.0]]}}, {"type": "Feature", "properties": {"uuid": "12d313a7-e802-43bf-b9fc-9330754e6abf", "name": "Splash Forward Hong Kong Ltd.", "slug": "splash-forward-hong-kong-ltd", "proximity": 0.38022806837, "user": {"identifier": "HRAKOT22", "first_name": "Heri", "last_name": "Heri", "ambassador": true, "staff": true, "admin": true}, "partner": null, "partner_identifier": null, "google_place_id": null, "contact_details": {"email": null, "phone": null, "website": null, "booking_url": null, "facebook_username": null}, "address_components": {"address": "38 Nelson Street, Room 505, 5/F, MacPherson Place, Mong Kok", "city": null, "postal_code": null, "province": null, "country": "CN"}, "activities": [{"sport_id": 78, "photo_reference": null, "booking_url": null, "title": null, "user": {"identifier": "HRAKOT22", "first_name": "Heri", "last_name": "Heri", "ambassador": true, "staff": true, "admin": true}, "image": null, "tags": [], "attributes": []}], "reviews": [], "notes": null, "photo_reference": null, "updated_at": "2020-06-22 21:20:08 UTC", "created_at": "2020-03-17 18:07:31 UTC", "attachments": [], "quality_indicator": 1, "featured": false, "featured_by": null}, "geometry": {"type": "Linestring", "coordinates": [[114.17299047524648, 22.318392452957625, 0.0], [114.17301914135533, 22.318260521801676, 0.0], [114.17275058517765, 22.31821366696292, 0.0], [114.17272367926847, 22.318345681937927, 0.0], [114.17299047524648, 22.318392452957625, 0.0]]}}, {"type": "Feature", "properties": {"uuid": "04b6e5c6-b8c1-43e2-b6a2-59904cfd66cb", "name": "Under review, proposed: Tennis Courts", "slug": "tennis-courts-d3a24de0-9f19-4810-a79e-66e3f46cbb1e", "proximity": 0.38268745617, "user": {"identifier": "HRAKOT22", "first_name": "Heri", "last_name": "Heri", "ambassador": true, "staff": true, "admin": true}, "partner": null, "partner_identifier": null, "google_place_id": null, "contact_details": {"email": null, "phone": null, "website": null, "booking_url": null, "facebook_username": null}, "address_components": {"address": "1 Cherry Street, Mong Kok", "city": null, "postal_code": null, "province": null, "country": "CN"}, "activities": [{"sport_id": 134, "photo_reference": null, "booking_url": null, "title": null, "user": {"identifier": "HRAKOT22", "first_name": "Heri", "last_name": "Heri", "ambassador": true, "staff": true, "admin": true}, "image": null, "tags": [], "attributes": []}], "reviews": [], "notes": null, "photo_reference": null, "updated_at": "2020-06-22 20:50:53 UTC", "created_at": "2020-03-17 13:56:31 UTC", "attachments": [], "quality_indicator": 1, "featured": false, "featured_by": null}, "geometry": {"type": "Linestring", "coordinates": [[114.16587013231958, 22.31694355717505, 0.0], [114.16590474957968, 22.31674004456599, 0.0], [114.16600952336938, 22.31675529962976, 0.0], [114.16597498992832, 22.31695872841979, 0.0], [114.16587013231958, 22.31694355717505, 0.0]]}}, {"type": "Feature", "properties": {"uuid": "b3c57211-33b3-4fb5-9da2-cc8274ff3ba7", "name": "Under review, proposed: Tennis Court", "slug": "tennis-court-5e5bb9e1-33b1-4000-a592-bdae0f0cde54", "proximity": 0.39287341905, "user": {"identifier": "HRAKOT22", "first_name": "Heri", "last_name": "Heri", "ambassador": true, "staff": true, "admin": true}, "partner": null, "partner_identifier": null, "google_place_id": null, "contact_details": {"email": null, "phone": null, "website": null, "booking_url": null, "facebook_username": null}, "address_components": {"address": null, "city": null, "postal_code": null, "province": null, "country": "CN"}, "activities": [{"sport_id": 134, "photo_reference": null, "booking_url": null, "title": null, "user": {"identifier": "HRAKOT22", "first_name": "Heri", "last_name": "Heri", "ambassador": true, "staff": true, "admin": true}, "image": null, "tags": [], "attributes": []}], "reviews": [], "notes": null, "photo_reference": null, "updated_at": "2020-06-22 20:50:53 UTC", "created_at": "2020-03-17 13:56:32 UTC", "attachments": [], "quality_indicator": 1, "featured": false, "featured_by": null}, "geometry": {"type": "Linestring", "coordinates": [[114.16592821890856, 22.316611717628405, 0.0], [114.16596275234969, 22.316408288838375, 0.0], [114.16606752613933, 22.316423460083143, 0.0], [114.16603299269826, 22.316626972692177, 0.0], [114.16592821890856, 22.316611717628405, 0.0]]}}, {"type": "Feature", "properties": {"uuid": "b76ba0ee-67cd-42a6-9f66-561336e94b84", "name": "Under review, proposed: Tennis Courts", "slug": "tennis-courts-06ec8468-2f81-4676-a9d5-2ab375650c98", "proximity": 0.39746950586, "user": {"identifier": "HRAKOT22", "first_name": "Heri", "last_name": "Heri", "ambassador": true, "staff": true, "admin": true}, "partner": null, "partner_identifier": null, "google_place_id": null, "contact_details": {"email": null, "phone": null, "website": null, "booking_url": null, "facebook_username": null}, "address_components": {"address": "1 Cherry Street, Mong Kok", "city": null, "postal_code": null, "province": null, "country": "CN"}, "activities": [{"sport_id": 134, "photo_reference": null, "booking_url": null, "title": null, "user": {"identifier": "HRAKOT22", "first_name": "Heri", "last_name": "Heri", "ambassador": true, "staff": true, "admin": true}, "image": null, "tags": [], "attributes": []}], "reviews": [], "notes": null, "photo_reference": null, "updated_at": "2020-06-22 20:50:53 UTC", "created_at": "2020-03-17 13:56:33 UTC", "attachments": [], "quality_indicator": 1, "featured": false, "featured_by": null}, "geometry": {"type": "Linestring", "coordinates": [[114.16572512539472, 22.316920842217456, 0.0], [114.16575974265481, 22.316717329608394, 0.0], [114.16586451644446, 22.316732584672167, 0.0], [114.16582998300339, 22.31693609728123, 0.0], [114.16572512539472, 22.316920842217456, 0.0]]}}, {"type": "Feature", "properties": {"uuid": "c6a46656-02d1-467e-8fff-7f2388264256", "name": "Under review, proposed: Tennis Court", "slug": "tennis-court-bc873cc9-fc95-4cdb-b6f0-b0a6cdffc7a7", "proximity": 0.4072968439, "user": {"identifier": "HRAKOT22", "first_name": "Heri", "last_name": "Heri", "ambassador": true, "staff": true, "admin": true}, "partner": null, "partner_identifier": null, "google_place_id": null, "contact_details": {"email": null, "phone": null, "website": null, "booking_url": null, "facebook_username": null}, "address_components": {"address": null, "city": null, "postal_code": null, "province": null, "country": "CN"}, "activities": [{"sport_id": 134, "photo_reference": null, "booking_url": null, "title": null, "user": {"identifier": "HRAKOT22", "first_name": "Heri", "last_name": "Heri", "ambassador": true, "staff": true, "admin": true}, "image": null, "tags": [], "attributes": []}], "reviews": [], "notes": null, "photo_reference": null, "updated_at": "2020-06-22 20:50:53 UTC", "created_at": "2020-03-17 13:56:30 UTC", "attachments": [], "quality_indicator": 1, "featured": false, "featured_by": null}, "geometry": {"type": "Linestring", "coordinates": [[114.16578312816466, 22.31658908648984, 0.0], [114.16581774542476, 22.31638557388078, 0.0], [114.1659225192144, 22.316400828944552, 0.0], [114.16588798577334, 22.316604341553614, 0.0], [114.16578312816466, 22.31658908648984, 0.0]]}}, {"type": "Feature", "properties": {"uuid": "92b6651c-84d7-483e-96ef-2aa30f276392", "name": "Under review, proposed: NAIL ME ( The Nail Gallery)", "slug": "nail-me-the-nail-gallery", "proximity": 0.43193894438, "user": {"identifier": "HRAKOT22", "first_name": "Heri", "last_name": "Heri", "ambassador": true, "staff": true, "admin": true}, "partner": null, "partner_identifier": null, "google_place_id": null, "contact_details": {"email": null, "phone": null, "website": null, "booking_url": null, "facebook_username": null}, "address_components": {"address": "Shop UG99, Olympian City 3, 1 Hoi Wan Road, West Kowloon, Mong Kok", "city": null, "postal_code": null, "province": null, "country": "CN"}, "activities": [{"sport_id": 224, "photo_reference": null, "booking_url": null, "title": null, "user": {"identifier": "HRAKOT22", "first_name": "Heri", "last_name": "Heri", "ambassador": true, "staff": true, "admin": true}, "image": null, "tags": [], "attributes": []}], "reviews": [], "notes": null, "photo_reference": null, "updated_at": "2020-06-22 20:50:52 UTC", "created_at": "2020-03-17 13:56:28 UTC", "attachments": [], "quality_indicator": 1, "featured": false, "featured_by": null}, "geometry": {"type": "Linestring", "coordinates": [[114.16520536357888, 22.317437921824222, 0.0], [114.16517083013781, 22.317409255715376, 0.0], [114.16516228059658, 22.317379080863958, 0.0], [114.16518466027804, 22.317345553251243, 0.0], [114.16522765944137, 22.31734245194707, 0.0], [114.16528105216457, 22.317344044508673, 0.0], [114.16534643100931, 22.317301045345403, 0.0], [114.16540669689311, 22.317240528004476, 0.0], [114.16544106269612, 22.317160983743378, 0.0], [114.16547375211854, 22.317129048692266, 0.0], [114.16550476516028, 22.31712435482649, 0.0], [114.16552882122238, 22.317140280442544, 0.0], [114.16553225780268, 22.317176825540372, 0.0], [114.16548062527914, 22.31722468620748, 0.0], [114.16547727251788, 22.317272379236556, 0.0], [114.16545824559768, 22.31732484995041, 0.0], [114.16546511875828, 22.317366256552077, 0.0], [114.16546344237764, 22.317414033400183, 0.0], [114.16544106269612, 22.317434736701017, 0.0], [114.16540493669345, 22.31744278332806, 0.0], [114.16535674075021, 22.3174251813314, 0.0], [114.16532572770848, 22.317418894904023, 0.0], [114.16528968552484, 22.317428366454607, 0.0], [114.16525347570314, 22.317439598204857, 0.0], [114.16520536357888, 22.317437921824222, 0.0]]}}, {"type": "Feature", "properties": {"uuid": "f5822c3d-e5fb-45b7-94a2-17bfec5e13b0", "name": "Yaumatei and Tsimshatsui Recreation and Sports Association", "slug": "yaumatei-and-tsimshatsui-recreation-and-sports-association-0c9b8811-e080-4065-bfa2-6425857ae25a", "proximity": 0.44517281007, "user": {"identifier": "HRAKOT22", "first_name": "Heri", "last_name": "Heri", "ambassador": true, "staff": true, "admin": true}, "partner": null, "partner_identifier": null, "google_place_id": null, "contact_details": {"email": null, "phone": null, "website": null, "booking_url": null, "facebook_username": null}, "address_components": {"address": "38 Hamilton Street, Mong Kok", "city": null, "postal_code": null, "province": null, "country": "CN"}, "activities": [{"sport_id": 134, "photo_reference": null, "booking_url": null, "title": null, "user": {"identifier": "HRAKOT22", "first_name": "Heri", "last_name": "Heri", "ambassador": true, "staff": true, "admin": true}, "image": null, "tags": [], "attributes": []}], "reviews": [], "notes": null, "photo_reference": null, "updated_at": "2020-06-22 21:14:58 UTC", "created_at": "2020-03-17 17:35:38 UTC", "attachments": [], "quality_indicator": 1, "featured": false, "featured_by": null}, "geometry": {"type": "Linestring", "coordinates": [[114.17094218956794, 22.314544572667756, 0.0], [114.17091419401135, 22.314675162719197, 0.0], [114.1712165292588, 22.31473065091822, 0.0], [114.17124469245346, 22.31460006086678, 0.0], [114.17094218956794, 22.314544572667756, 0.0]]}}, {"type": "Feature", "properties": {"uuid": "057ab556-0232-45b2-9fd0-7e7cc1decda3", "name": "Yaumatei and Tsimshatsui Recreation and Sports Association", "slug": "yaumatei-and-tsimshatsui-recreation-and-sports-association", "proximity": 0.44724510714, "user": {"identifier": "d841cbdf-529b-4b87-b3dc-222857338d6d", "first_name": "JULES", "last_name": "DE LEUSSE", "ambassador": true, "staff": true, "admin": false}, "partner": null, "partner_identifier": null, "google_place_id": "ChIJL_4O1MYABDQRbW2BFNXhMOc", "contact_details": {"email": null, "phone": null, "website": null, "booking_url": null, "facebook_username": null}, "address_components": {"address": "38 Hamilton Street", "city": "Mong Kok", "postal_code": null, "province": "Kowloon", "country": "HK"}, "activities": [{"sport_id": 134, "photo_reference": "", "booking_url": null, "title": null, "user": {"identifier": "d841cbdf-529b-4b87-b3dc-222857338d6d", "first_name": "JULES", "last_name": "DE LEUSSE", "ambassador": true, "staff": true, "admin": false}, "image": null, "tags": ["members_only", "floodlight", "car_park"], "attributes": [{"name": "type_of_place", "value": "club", "type": "String"}]}], "reviews": [], "notes": "Only open to club members. Yau Ma Tei & Tsim Sha Tsui Recreation & Sports Association offers 2 hard courts (1 indoor and 1 outdoor). ", "photo_reference": null, "updated_at": "2020-06-22 18:26:35 UTC", "created_at": "2019-01-23 07:09:38 UTC", "attachments": [], "quality_indicator": 3, "featured": false, "featured_by": null}, "geometry": {"type": "Point", "coordinates": [114.1710996, 22.3145875, 0.0]}}, {"type": "Feature", "properties": {"uuid": "e317c5a3-b6c5-4e5d-8e9a-232cb63ff5ed", "name": "Under review, proposed: \u6bbf\u7cd6\u7d1a", "slug": "efa8b34d-b013-441d-9f76-3c7470d2471f", "proximity": 0.45671698031, "user": {"identifier": "HRAKOT22", "first_name": "Heri", "last_name": "Heri", "ambassador": true, "staff": true, "admin": true}, "partner": null, "partner_identifier": null, "google_place_id": null, "contact_details": {"email": null, "phone": null, "website": null, "booking_url": null, "facebook_username": null}, "address_components": {"address": "\u5967\u6d77\u57ce\u4e09\u671fUG\u6a13UG68\u865f\u8216, 1\u865f Hoi Wang Road, Tai Kok Tsui", "city": null, "postal_code": null, "province": null, "country": "CN"}, "activities": [{"sport_id": 224, "photo_reference": null, "booking_url": null, "title": null, "user": {"identifier": "HRAKOT22", "first_name": "Heri", "last_name": "Heri", "ambassador": true, "staff": true, "admin": true}, "image": null, "tags": [], "attributes": []}], "reviews": [], "notes": null, "photo_reference": null, "updated_at": "2020-06-22 20:50:54 UTC", "created_at": "2020-03-17 13:56:41 UTC", "attachments": [], "quality_indicator": 0, "featured": false, "featured_by": null}, "geometry": {"type": "Linestring", "coordinates": [[114.16495407412174, 22.317463486628895, 0.0], [114.16516052039691, 22.3174856986723, 0.0], [114.16514853427537, 22.31746021768666, 0.0], [114.16513135137387, 22.31744278332806, 0.0], [114.16510033833214, 22.317428366454607, 0.0], [114.16507108549007, 22.317422080027228, 0.0], [114.1650349594874, 22.317418894904023, 0.0], [114.16499196032413, 22.317426773893004, 0.0], [114.16495407412174, 22.317463486628895, 0.0]]}}]}}