{"links": {"self": "https://sportplaces.api.decathlon.com/api/v1/places?origin=114.23133200000001%2C22.42651&page=1&radius=2", "first": "https://sportplaces.api.decathlon.com/api/v1/places?origin=114.23133200000001%2C22.42651&page=1&radius=2", "next": "https://sportplaces.api.decathlon.com/api/v1/places?origin=114.23133200000001%2C22.42651&page=2&radius=2", "last": "https://sportplaces.api.decathlon.com/api/v1/places?origin=114.23133200000001%2C22.42651&page=12&radius=2"}, "count": 114, "data": {"type": "FeatureCollection", "features": [{"type": "Feature", "properties": {"uuid": "acdb01d6-678a-4335-9744-1470156a8588", "name": "Under review, proposed: \u8b5a\u4ed4\u96f2\u5357\u7c73\u7dda", "slug": "b562230c-2548-4306-864b-b75910c28614", "proximity": 0.09341559964, "user": {"identifier": "HRAKOT22", "first_name": "Heri", "last_name": "Heri", "ambassador": true, "staff": true, "admin": true}, "partner": null, "partner_identifier": null, "google_place_id": null, "contact_details": {"email": null, "phone": null, "website": null, "booking_url": null, "facebook_username": null}, "address_components": {"address": "\u99ac\u978d\u5c71\u5ee3\u5834\u4e8c\u6a13266-268\u865f\u8216, Ma On Shan", "city": null, "postal_code": null, "province": null, "country": "CN"}, "activities": [{"sport_id": 224, "photo_reference": null, "booking_url": null, "title": null, "user": {"identifier": "HRAKOT22", "first_name": "Heri", "last_name": "Heri", "ambassador": true, "staff": true, "admin": true}, "image": null, "tags": [], "attributes": []}], "reviews": [], "notes": null, "photo_reference": null, "updated_at": "2020-06-22 20:47:51 UTC", "created_at": "2020-03-17 13:31:47 UTC", "attachments": [], "quality_indicator": 1, "featured": false, "featured_by": null}, "geometry": {"type": "Linestring", "coordinates": [[114.23116457130806, 22.425680897397626, 0.0], [114.23116188909904, 22.42566304394387, 0.0], [114.23117379140155, 22.425658098621, 0.0], [114.23121662292675, 22.425665642333854, 0.0], [114.23123581748501, 22.425649549079765, 0.0], [114.23124495375947, 22.425627672312487, 0.0], [114.23124227155046, 22.425603197155226, 0.0], [114.23121117468969, 22.425596323994625, 0.0], [114.23119198013143, 22.425585427520502, 0.0], [114.23118569370405, 22.425560030353864, 0.0], [114.23120027821557, 22.4255305260547, 0.0], [114.23122852522926, 22.425522060332497, 0.0], [114.23125777807132, 22.42553982996722, 0.0], [114.231283342876, 22.42556422130545, 0.0], [114.23131343390838, 22.4255685798951, 0.0], [114.23134545277856, 22.42555248664101, 0.0], [114.23137747164867, 22.425553324831327, 0.0], [114.23141309473715, 22.42556765788575, 0.0], [114.23143865954182, 22.425587942091454, 0.0], [114.23144595179758, 22.425616692019332, 0.0], [114.2314486340066, 22.42563949079596, 0.0], [114.23145508807204, 22.425649549079765, 0.0], [114.23146782856486, 22.42564879470848, 0.0], [114.23148157488606, 22.425650471089114, 0.0], [114.23148794513247, 22.42566396595322, 0.0], [114.23148249689541, 22.42568165176891, 0.0], [114.23147143278322, 22.42569439226176, 0.0], [114.23147143278322, 22.425704450545567, 0.0], [114.23146145831845, 22.425727249322193, 0.0], [114.23144318576954, 22.42573487685408, 0.0], [114.23140571866236, 22.425729763893145, 0.0], [114.23137747164867, 22.425712078077453, 0.0], [114.23137017939291, 22.425690033672083, 0.0], [114.23135735508106, 22.425662289572585, 0.0], [114.23133086826704, 22.425650471089114, 0.0], [114.23130253743426, 22.425650471089114, 0.0], [114.23130253743426, 22.42567913719796, 0.0], [114.23128602508501, 22.425683328149546, 0.0], [114.23126683052675, 22.425668995095123, 0.0], [114.23125861626164, 22.42568165176891, 0.0], [114.23125132400588, 22.425708641497152, 0.0], [114.2312212329735, 22.42571543083872, 0.0], [114.23117823381023, 22.425697661203998, 0.0], [114.23116457130806, 22.425680897397626, 0.0]]}}, {"type": "Feature", "properties": {"uuid": "7527dc4d-6b73-4104-bc0d-a504d80f499f", "name": "\u8db3\u5065\u5f91 Walking Tiles", "slug": "walking-tiles-3ed72ac2-f763-4756-97e3-dc842ac85334", "proximity": 0.11084003163, "user": {"identifier": "HRAKOT22", "first_name": "Heri", "last_name": "Heri", "ambassador": true, "staff": true, "admin": true}, "partner": null, "partner_identifier": null, "google_place_id": null, "contact_details": {"email": null, "phone": null, "website": null, "booking_url": null, "facebook_username": null}, "address_components": {"address": null, "city": null, "postal_code": null, "province": null, "country": "CN"}, "activities": [{"sport_id": 109, "photo_reference": null, "booking_url": null, "title": null, "user": {"identifier": "HRAKOT22", "first_name": "Heri", "last_name": "Heri", "ambassador": true, "staff": true, "admin": true}, "image": null, "tags": [], "attributes": []}], "reviews": [], "notes": null, "photo_reference": null, "updated_at": "2020-07-02 15:20:04 UTC", "created_at": "2020-04-24 21:23:39 UTC", "attachments": [], "quality_indicator": 1, "featured": false, "featured_by": null}, "geometry": {"type": "Point", "coordinates": [114.23065679561381, 22.427289636073738, 0.0]}}, {"type": "Feature", "properties": {"uuid": "d29267f4-80f4-4a54-921a-99466d162d97", "name": "\u9577\u8005\u5065\u9ad4\u7ad9 Elderly Fitness Stations", "slug": "elderly-fitness-stations-c4402eee-0084-40f9-a019-7f706f5ef87f", "proximity": 0.11515461548, "user": {"identifier": "HRAKOT22", "first_name": "Heri", "last_name": "Heri", "ambassador": true, "staff": true, "admin": true}, "partner": null, "partner_identifier": null, "google_place_id": null, "contact_details": {"email": null, "phone": null, "website": null, "booking_url": null, "facebook_username": null}, "address_components": {"address": null, "city": null, "postal_code": null, "province": null, "country": "CN"}, "activities": [{"sport_id": 109, "photo_reference": null, "booking_url": null, "title": null, "user": {"identifier": "HRAKOT22", "first_name": "Heri", "last_name": "Heri", "ambassador": true, "staff": true, "admin": true}, "image": null, "tags": [], "attributes": []}], "reviews": [], "notes": null, "photo_reference": null, "updated_at": "2020-07-02 15:20:04 UTC", "created_at": "2020-04-24 21:23:38 UTC", "attachments": [], "quality_indicator": 1, "featured": false, "featured_by": null}, "geometry": {"type": "Point", "coordinates": [114.23053098324715, 22.427235824255348, 0.0]}}, {"type": "Feature", "properties": {"uuid": "341180c6-3f8f-4241-b7ef-00c621fa0095", "name": "Under review, proposed: Villa Oceania Club House", "slug": "villa-oceania-club-house", "proximity": 0.15982222788, "user": {"identifier": "HRAKOT22", "first_name": "Heri", "last_name": "Heri", "ambassador": true, "staff": true, "admin": true}, "partner": null, "partner_identifier": null, "google_place_id": null, "contact_details": {"email": null, "phone": null, "website": null, "booking_url": null, "facebook_username": null}, "address_components": {"address": "8 On Chun Street, Ma On Shan", "city": null, "postal_code": null, "province": null, "country": "CN"}, "activities": [{"sport_id": 224, "photo_reference": null, "booking_url": null, "title": null, "user": {"identifier": "HRAKOT22", "first_name": "Heri", "last_name": "Heri", "ambassador": true, "staff": true, "admin": true}, "image": null, "tags": [], "attributes": []}], "reviews": [], "notes": null, "photo_reference": null, "updated_at": "2020-06-22 20:47:50 UTC", "created_at": "2020-03-17 13:31:42 UTC", "attachments": [], "quality_indicator": 1, "featured": false, "featured_by": null}, "geometry": {"type": "Linestring", "coordinates": [[114.23283508461054, 22.426870960010206, 0.0], [114.23279367800887, 22.42685117871872, 0.0], [114.23275537271132, 22.426822847886, 0.0], [114.2327323224776, 22.426791667206203, 0.0], [114.23272779624989, 22.426761827630884, 0.0], [114.23274003382852, 22.426739280311352, 0.0], [114.23276459280487, 22.426723689971453, 0.0], [114.23281664442356, 22.42671379932571, 0.0], [114.23288864497181, 22.426719499019867, 0.0], [114.23296064552005, 22.426743471262938, 0.0], [114.23300356086429, 22.426777417970783, 0.0], [114.23303423862995, 22.426811448497688, 0.0], [114.2330388486767, 22.42683692948333, 0.0], [114.23303113732578, 22.426859644440924, 0.0], [114.2330097634727, 22.426876659704362, 0.0], [114.23297908570703, 22.426886550350105, 0.0], [114.23292845901187, 22.42689225004426, 0.0], [114.23287799995478, 22.426885125426566, 0.0], [114.23283508461054, 22.426870960010206, 0.0]]}}, {"type": "Feature", "properties": {"uuid": "3ebc5b8b-5b96-4f4b-b23b-17d7446462aa", "name": "Under review, proposed: Peterson English Ed CT(MA on Shan CT No1", "slug": "peterson-english-ed-ct-ma-on-shan-ct-no1", "proximity": 0.2194022608, "user": {"identifier": "HRAKOT22", "first_name": "Heri", "last_name": "Heri", "ambassador": true, "staff": true, "admin": true}, "partner": null, "partner_identifier": null, "google_place_id": null, "contact_details": {"email": null, "phone": null, "website": null, "booking_url": null, "facebook_username": null}, "address_components": {"address": "\u65b0\u754c\u6c99\u7530\u978d\u99ff\u8857\uff11\u865f\u99ac\u978d\u5c71\u4e2d\u5fc3\u5546\u5834\u5730\u4e0b\uff21\uff15\uff13\uff0d\uff21\uff15\uff13\uff21\u865f\u8216", "city": null, "postal_code": null, "province": null, "country": "CN"}, "activities": [{"sport_id": 224, "photo_reference": null, "booking_url": null, "title": null, "user": {"identifier": "HRAKOT22", "first_name": "Heri", "last_name": "Heri", "ambassador": true, "staff": true, "admin": true}, "image": null, "tags": [], "attributes": []}], "reviews": [], "notes": null, "photo_reference": null, "updated_at": "2020-06-22 20:47:48 UTC", "created_at": "2020-03-17 13:31:25 UTC", "attachments": [], "quality_indicator": 1, "featured": false, "featured_by": null}, "geometry": {"type": "Linestring", "coordinates": [[114.23332408484168, 22.425806039212006, 0.0], [114.23336314451046, 22.425682154683102, 0.0], [114.23360513005508, 22.425747449708837, 0.0], [114.2335660703863, 22.42587133423774, 0.0], [114.23332408484168, 22.425806039212006, 0.0]]}}, {"type": "Feature", "properties": {"uuid": "19764902-9c66-4ffb-a52b-1a185b0039d0", "name": "Under review, proposed: Hong Kong Taoist Association Shun Yeung Primary School Baseball Field", "slug": "hong-kong-taoist-association-shun-yeung-primary-school-baseball-field", "proximity": 0.28424949547, "user": {"identifier": "HRAKOT22", "first_name": "Heri", "last_name": "Heri", "ambassador": true, "staff": true, "admin": true}, "partner": null, "partner_identifier": null, "google_place_id": null, "contact_details": {"email": null, "phone": null, "website": null, "booking_url": null, "facebook_username": null}, "address_components": {"address": "On Chun Street, Ma On Shan", "city": null, "postal_code": null, "province": null, "country": "CN"}, "activities": [{"sport_id": 74, "photo_reference": null, "booking_url": null, "title": null, "user": {"identifier": "HRAKOT22", "first_name": "Heri", "last_name": "Heri", "ambassador": true, "staff": true, "admin": true}, "image": null, "tags": [], "attributes": []}], "reviews": [], "notes": null, "photo_reference": null, "updated_at": "2020-06-22 20:42:38 UTC", "created_at": "2020-03-17 02:29:20 UTC", "attachments": [], "quality_indicator": 2, "featured": false, "featured_by": null}, "geometry": {"type": "Linestring", "coordinates": [[114.22864949744178, 22.42590217964141, 0.0], [114.22851999703778, 22.425710150239723, 0.0], [114.22817558463635, 22.42518192270171, 0.0], [114.2282860581202, 22.42516532653343, 0.0], [114.22848982218636, 22.425187538576836, 0.0], [114.22850138921274, 22.42518879586231, 0.0], [114.22907119099045, 22.42534821966069, 0.0], [114.22912475135172, 22.425405970973543, 0.0], [114.2291615479067, 22.425493561861714, 0.0], [114.22916464921087, 22.425563969848355, 0.0], [114.22864949744178, 22.42590217964141, 0.0]]}}, {"type": "Feature", "properties": {"uuid": "28a94a50-3717-4f52-be4f-bc4e780d3dc4", "name": "Under review, proposed: Hong Kong Taoist Association Shun Yeung Primary School", "slug": "hong-kong-taoist-association-shun-yeung-primary-school-bd7cf627-efaf-4c8d-b866-cbf825bf1a4a", "proximity": 0.32509998513, "user": {"identifier": "HRAKOT22", "first_name": "Heri", "last_name": "Heri", "ambassador": true, "staff": true, "admin": true}, "partner": null, "partner_identifier": null, "google_place_id": null, "contact_details": {"email": null, "phone": null, "website": null, "booking_url": null, "facebook_username": null}, "address_components": {"address": "30\u865f On Chun Street, Ma On Shan", "city": null, "postal_code": null, "province": null, "country": "CN"}, "activities": [{"sport_id": 78, "photo_reference": null, "booking_url": null, "title": null, "user": {"identifier": "HRAKOT22", "first_name": "Heri", "last_name": "Heri", "ambassador": true, "staff": true, "admin": true}, "image": null, "tags": [], "attributes": []}], "reviews": [], "notes": null, "photo_reference": null, "updated_at": "2020-06-22 20:43:08 UTC", "created_at": "2020-03-17 02:32:55 UTC", "attachments": [], "quality_indicator": 1, "featured": false, "featured_by": null}, "geometry": {"type": "Linestring", "coordinates": [[114.22817591991247, 22.42660768443153, 0.0], [114.22810769122066, 22.42650793978376, 0.0], [114.2283053364975, 22.426392269519965, 0.0], [114.22837364900835, 22.426491930348703, 0.0], [114.22817591991247, 22.42660768443153, 0.0]]}}, {"type": "Feature", "properties": {"uuid": "0b611f48-219b-41ec-a4bb-feae3684f60e", "name": "\u99ac\u978d\u5c71\u6e38\u6cf3\u6c60 Ma On Shan Swimming Pool", "slug": "ma-on-shan-swimming-pool", "proximity": 0.32863069977, "user": {"identifier": "HRAKOT22", "first_name": "Heri", "last_name": "Heri", "ambassador": true, "staff": true, "admin": true}, "partner": null, "partner_identifier": null, "google_place_id": null, "contact_details": {"email": null, "phone": null, "website": null, "booking_url": null, "facebook_username": null}, "address_components": {"address": null, "city": null, "postal_code": null, "province": null, "country": "CN"}, "activities": [{"sport_id": 224, "photo_reference": null, "booking_url": null, "title": null, "user": {"identifier": "HRAKOT22", "first_name": "Heri", "last_name": "Heri", "ambassador": true, "staff": true, "admin": true}, "image": null, "tags": [], "attributes": []}], "reviews": [], "notes": null, "photo_reference": null, "updated_at": "2020-06-22 20:41:50 UTC", "created_at": "2020-03-17 02:25:14 UTC", "attachments": [], "quality_indicator": 1, "featured": false, "featured_by": null}, "geometry": {"type": "Linestring", "coordinates": [[114.22818036232121, 22.42698118203694, 0.0], [114.22897287126625, 22.4264903377871, 0.0], [114.22905199643219, 22.426413391915958, 0.0], [114.22921854484827, 22.426444153500626, 0.0], [114.22927269194275, 22.426397969214122, 0.0], [114.22935173328966, 22.42637483516137, 0.0], [114.22945164557552, 22.426417247591445, 0.0], [114.22947226505732, 22.426391263691585, 0.0], [114.2295720935241, 22.426395119367044, 0.0], [114.22966136079293, 22.426363771049182, 0.0], [114.22974157560628, 22.426320520428817, 0.0], [114.22980896610778, 22.426246927318942, 0.0], [114.22987459640967, 22.426283220959675, 0.0], [114.23016779538267, 22.426342397196095, 0.0], [114.23019864078634, 22.42636653707723, 0.0], [114.23024264577799, 22.42638564781646, 0.0], [114.23032478842907, 22.42639252097706, 0.0], [114.23027474846714, 22.426540796844222, 0.0], [114.23026234325044, 22.42669854426194, 0.0], [114.2303372774648, 22.426867858706032, 0.0], [114.23039972264348, 22.4269987840336, 0.0], [114.23037885170459, 22.427094924463006, 0.0], [114.23012077290588, 22.427152675775886, 0.0], [114.22997911874222, 22.42732207403901, 0.0], [114.22988348122703, 22.42759524026343, 0.0], [114.22984769050043, 22.427706887213702, 0.0], [114.22972405742865, 22.427837225808048, 0.0], [114.22865947190655, 22.427668833373303, 0.0], [114.22818036232121, 22.42698118203694, 0.0]]}}, {"type": "Feature", "properties": {"uuid": "319786d5-498a-4c6a-ba68-2188f4255427", "name": "Under review, proposed: Hong Kong Taoist Association Shun Yeung Primary School", "slug": "hong-kong-taoist-association-shun-yeung-primary-school", "proximity": 0.33285603836, "user": {"identifier": "HRAKOT22", "first_name": "Heri", "last_name": "Heri", "ambassador": true, "staff": true, "admin": true}, "partner": null, "partner_identifier": null, "google_place_id": null, "contact_details": {"email": null, "phone": null, "website": null, "booking_url": null, "facebook_username": null}, "address_components": {"address": "30\u865f On Chun Street, Ma On Shan", "city": null, "postal_code": null, "province": null, "country": "CN"}, "activities": [{"sport_id": 78, "photo_reference": null, "booking_url": null, "title": null, "user": {"identifier": "HRAKOT22", "first_name": "Heri", "last_name": "Heri", "ambassador": true, "staff": true, "admin": true}, "image": null, "tags": [], "attributes": []}], "reviews": [], "notes": null, "photo_reference": null, "updated_at": "2020-06-22 20:43:07 UTC", "created_at": "2020-03-17 02:32:51 UTC", "attachments": [], "quality_indicator": 1, "featured": false, "featured_by": null}, "geometry": {"type": "Linestring", "coordinates": [[114.22809889022233, 22.426492433262894, 0.0], [114.22803049389245, 22.426392772434156, 0.0], [114.22822772007413, 22.42627718598939, 0.0], [114.22829611640401, 22.42637684681813, 0.0], [114.22809889022233, 22.426492433262894, 0.0]]}}, {"type": "Feature", "properties": {"uuid": "c329f8bc-cec4-4257-9a68-99b73570b81e", "name": "\u8a13\u7df4\u6c60 Training Pool", "slug": "training-pool", "proximity": 0.33397322731, "user": {"identifier": "HRAKOT22", "first_name": "Heri", "last_name": "Heri", "ambassador": true, "staff": true, "admin": true}, "partner": null, "partner_identifier": null, "google_place_id": null, "contact_details": {"email": null, "phone": null, "website": null, "booking_url": null, "facebook_username": null}, "address_components": {"address": null, "city": null, "postal_code": null, "province": null, "country": "CN"}, "activities": [{"sport_id": 224, "photo_reference": null, "booking_url": null, "title": null, "user": {"identifier": "HRAKOT22", "first_name": "Heri", "last_name": "Heri", "ambassador": true, "staff": true, "admin": true}, "image": null, "tags": [], "attributes": []}], "reviews": [], "notes": null, "photo_reference": null, "updated_at": "2020-06-22 20:44:06 UTC", "created_at": "2020-03-17 02:42:34 UTC", "attachments": [], "quality_indicator": 1, "featured": false, "featured_by": null}, "geometry": {"type": "Linestring", "coordinates": [[114.23435966897875, 22.427592977149573, 0.0], [114.23433955241114, 22.427585684893813, 0.0], [114.23433091905088, 22.427572441486802, 0.0], [114.23432815302283, 22.427553163109508, 0.0], [114.23432815302283, 22.427539249150243, 0.0], [114.23433167342216, 22.42752927468547, 0.0], [114.23433888185889, 22.42751661801168, 0.0], [114.23435329873234, 22.427508068470445, 0.0], [114.23436687741548, 22.42750739791819, 0.0], [114.23438053991765, 22.427508068470445, 0.0], [114.2344020814088, 22.4275087390227, 0.0], [114.23441859375805, 22.427506056813684, 0.0], [114.23442571837575, 22.427494741244374, 0.0], [114.23443938087792, 22.427483593313156, 0.0], [114.23445379775143, 22.42748082728511, 0.0], [114.2344637722162, 22.42748082728511, 0.0], [114.23446955572939, 22.427485437331853, 0.0], [114.23447307612872, 22.427498764557896, 0.0], [114.23447232175744, 22.42751469017395, 0.0], [114.23446737643457, 22.42753128634223, 0.0], [114.23445228900886, 22.427556432051745, 0.0], [114.2344314180699, 22.42757579424807, 0.0], [114.23441138532132, 22.427587696550574, 0.0], [114.23439487297208, 22.427591636045065, 0.0], [114.234376181328, 22.42759239041635, 0.0], [114.23435966897875, 22.427592977149573, 0.0]]}}]}}