{"links": {"self": "https://sportplaces.api.decathlon.com/api/v1/places?origin=114.15647690000002%2C22.28185663&page=1&radius=2", "first": "https://sportplaces.api.decathlon.com/api/v1/places?origin=114.15647690000002%2C22.28185663&page=1&radius=2", "next": "https://sportplaces.api.decathlon.com/api/v1/places?origin=114.15647690000002%2C22.28185663&page=2&radius=2", "last": "https://sportplaces.api.decathlon.com/api/v1/places?origin=114.15647690000002%2C22.28185663&page=8&radius=2"}, "count": 74, "data": {"type": "FeatureCollection", "features": [{"type": "Feature", "properties": {"uuid": "5dc20f6e-5d2f-45f5-a0ca-b2a9354f2fd9", "name": "Under review, proposed: \u96c5\u8cd3\u5229\u5927\u5ec8 - \u79c1\u4eba\u6cf3\u6c60", "slug": "b730dfba-f8bb-4f1e-a9d6-e8a0e47bb146", "proximity": 0.45356449394, "user": {"identifier": "HRAKOT22", "first_name": "Heri", "last_name": "Heri", "ambassador": true, "staff": true, "admin": true}, "partner": null, "partner_identifier": null, "google_place_id": null, "contact_details": {"email": null, "phone": null, "website": null, "booking_url": null, "facebook_username": null}, "address_components": {"address": "The Albany, Albany Road", "city": null, "postal_code": null, "province": null, "country": "CN"}, "activities": [{"sport_id": 224, "photo_reference": null, "booking_url": null, "title": null, "user": {"identifier": "HRAKOT22", "first_name": "Heri", "last_name": "Heri", "ambassador": true, "staff": true, "admin": true}, "image": null, "tags": [], "attributes": []}], "reviews": [], "notes": null, "photo_reference": null, "updated_at": "2020-06-22 20:46:38 UTC", "created_at": "2020-03-17 13:22:04 UTC", "attachments": [], "quality_indicator": 1, "featured": false, "featured_by": null}, "geometry": {"type": "Linestring", "coordinates": [[114.15482378976526, 22.278060578905382, 0.0], [114.15480945671084, 22.278061668552795, 0.0], [114.15474835263672, 22.278018250294338, 0.0], [114.15474952610316, 22.278007856734405, 0.0], [114.1547667928237, 22.278003498144756, 0.0], [114.15479705149414, 22.27799302076579, 0.0], [114.15485874230154, 22.277911129571777, 0.0], [114.15487357827016, 22.277908447362762, 0.0], [114.1549228638608, 22.277938035480986, 0.0], [114.15492462406047, 22.277957397677312, 0.0], [114.1548985563416, 22.277986985795508, 0.0], [114.1548646934528, 22.27799687644125, 0.0], [114.15482378976526, 22.278060578905382, 0.0]]}}, {"type": "Feature", "properties": {"uuid": "f590fbfc-06da-4e2c-b888-8e04c49beb94", "name": "Regal Crest", "slug": "regal-crest", "proximity": 0.51598389484, "user": {"identifier": "d841cbdf-529b-4b87-b3dc-222857338d6d", "first_name": "JULES", "last_name": "DE LEUSSE", "ambassador": true, "staff": true, "admin": false}, "partner": null, "partner_identifier": null, "google_place_id": "ChIJbUBHh3oABDQR2jTerMRanRM", "contact_details": {"email": null, "phone": null, "website": null, "booking_url": null, "facebook_username": null}, "address_components": {"address": "9 Robinson Road", "city": "Mid-level", "postal_code": null, "province": "Hong Kong Island", "country": "HK"}, "activities": [{"sport_id": 134, "photo_reference": "", "booking_url": null, "title": null, "user": {"identifier": "d841cbdf-529b-4b87-b3dc-222857338d6d", "first_name": "JULES", "last_name": "DE LEUSSE", "ambassador": true, "staff": true, "admin": false}, "image": null, "tags": ["members_only"], "attributes": [{"name": "type_of_place", "value": "residence", "type": "String"}]}], "reviews": [], "notes": "This beautiful residence Regal Crest provides its residents with 1 tennis court.", "photo_reference": null, "updated_at": "2020-06-22 18:26:31 UTC", "created_at": "2019-01-21 05:26:07 UTC", "attachments": [], "quality_indicator": 3, "featured": false, "featured_by": null}, "geometry": {"type": "Point", "coordinates": [114.1529693, 22.2785316, 0.0]}}, {"type": "Feature", "properties": {"uuid": "367be416-c060-4e77-b8f7-e78efc58aaea", "name": "Under review, proposed: HKBA", "slug": "hkba", "proximity": 0.58126597069, "user": {"identifier": "HRAKOT22", "first_name": "Heri", "last_name": "Heri", "ambassador": true, "staff": true, "admin": true}, "partner": null, "partner_identifier": null, "google_place_id": "ChIJn9fhhmUABDQR17D3UsBN-do", "contact_details": {"email": null, "phone": null, "website": null, "booking_url": null, "facebook_username": null}, "address_components": {"address": "29 Cotton Tree Drive, Central", "city": "Central", "postal_code": null, "province": "Hong Kong Island", "country": "CN"}, "activities": [{"sport_id": 78, "photo_reference": null, "booking_url": null, "title": null, "user": {"identifier": "HRAKOT22", "first_name": "Heri", "last_name": "Heri", "ambassador": true, "staff": true, "admin": true}, "image": null, "tags": [], "attributes": []}], "reviews": [], "notes": null, "photo_reference": null, "updated_at": "2020-06-22 20:40:01 UTC", "created_at": "2020-03-17 01:34:40 UTC", "attachments": [], "quality_indicator": 1, "featured": false, "featured_by": null}, "geometry": {"type": "Point", "coordinates": [114.15922646822622, 22.27725373690589, 0.0]}}, {"type": "Feature", "properties": {"uuid": "53d94c2c-bd93-4b61-9447-6e3c5a5f3aa1", "name": "Hong Kong Visual Arts Centre", "slug": "hong-kong-visual-arts-centre", "proximity": 0.59986542776, "user": {"identifier": "HRAKOT22", "first_name": "Heri", "last_name": "Heri", "ambassador": true, "staff": true, "admin": true}, "partner": null, "partner_identifier": null, "google_place_id": null, "contact_details": {"email": null, "phone": null, "website": null, "booking_url": null, "facebook_username": null}, "address_components": {"address": "7 Kennedy Road, Mid-Levels", "city": null, "postal_code": null, "province": null, "country": "CN"}, "activities": [{"sport_id": 139, "photo_reference": null, "booking_url": null, "title": null, "user": {"identifier": "HRAKOT22", "first_name": "Heri", "last_name": "Heri", "ambassador": true, "staff": true, "admin": true}, "image": null, "tags": [], "attributes": []}], "reviews": [], "notes": null, "photo_reference": null, "updated_at": "2020-06-22 21:06:58 UTC", "created_at": "2020-03-17 16:05:00 UTC", "attachments": [], "quality_indicator": 2, "featured": false, "featured_by": null}, "geometry": {"type": "Linestring", "coordinates": [[114.1588625259904, 22.27691535947477, 0.0], [114.15866152795229, 22.276883172966592, 0.0], [114.15865297841106, 22.276930782176606, 0.0], [114.15885439554432, 22.276961962856404, 0.0], [114.1588625259904, 22.27691535947477, 0.0]]}}, {"type": "Feature", "properties": {"uuid": "9ae1f613-6768-4914-beb8-01eff4487314", "name": "Conduit Road Reservoir Playground", "slug": "conduit-road-reservoir-playground", "proximity": 0.71891821312, "user": {"identifier": "HRAKOT22", "first_name": "Heri", "last_name": "Heri", "ambassador": true, "staff": true, "admin": true}, "partner": null, "partner_identifier": null, "google_place_id": null, "contact_details": {"email": null, "phone": null, "website": null, "booking_url": null, "facebook_username": null}, "address_components": {"address": null, "city": null, "postal_code": null, "province": null, "country": "CN"}, "activities": [{"sport_id": 81, "photo_reference": null, "booking_url": null, "title": null, "user": {"identifier": "HRAKOT22", "first_name": "Heri", "last_name": "Heri", "ambassador": true, "staff": true, "admin": true}, "image": null, "tags": [], "attributes": []}], "reviews": [], "notes": null, "photo_reference": null, "updated_at": "2020-06-22 20:47:51 UTC", "created_at": "2020-03-17 13:31:48 UTC", "attachments": [], "quality_indicator": 2, "featured": false, "featured_by": null}, "geometry": {"type": "Linestring", "coordinates": [[114.15119174348212, 22.277619271703287, 0.0], [114.1514407698254, 22.277393882326948, 0.0], [114.15126122945946, 22.277224064968664, 0.0], [114.15101228693521, 22.277449454345003, 0.0], [114.15119174348212, 22.277619271703287, 0.0]]}}, {"type": "Feature", "properties": {"uuid": "8b5bb801-27a5-47d4-900e-1df1242754e7", "name": "LRC (Ladies' Recreation Club)", "slug": "lrc-ladies-recreation-club", "proximity": 0.76515583801, "user": {"identifier": "d841cbdf-529b-4b87-b3dc-222857338d6d", "first_name": "JULES", "last_name": "DE LEUSSE", "ambassador": true, "staff": true, "admin": false}, "partner": null, "partner_identifier": null, "google_place_id": "ChIJgcOCtXEABDQRWqYHnGN4fGg", "contact_details": {"email": null, "phone": "+852 3199 3500", "website": "https://www.lrc.com.hk/tennis_lrc.aspx", "booking_url": null, "facebook_username": null}, "address_components": {"address": "10 Old Peak Road", "city": "Mid-level", "postal_code": null, "province": "Hong Kong Island", "country": "HK"}, "activities": [{"sport_id": 134, "photo_reference": "", "booking_url": null, "title": null, "user": {"identifier": "d841cbdf-529b-4b87-b3dc-222857338d6d", "first_name": "JULES", "last_name": "DE LEUSSE", "ambassador": true, "staff": true, "admin": false}, "image": {"id": 4, "url": "https://sportplaces.api.decathlon.com/rails/active_storage/blobs/redirect/eyJfcmFpbHMiOnsibWVzc2FnZSI6IkJBaHBDUT09IiwiZXhwIjpudWxsLCJwdXIiOiJibG9iX2lkIn19--33bdd731ea9024ddb3d86994d77f2e2122082439/lady%20recreationnal%20club2.jpeg", "variants": [{"thumbnail": {"url": "https://sportplaces.api.decathlon.com/rails/active_storage/representations/redirect/eyJfcmFpbHMiOnsibWVzc2FnZSI6IkJBaHBDUT09IiwiZXhwIjpudWxsLCJwdXIiOiJibG9iX2lkIn19--33bdd731ea9024ddb3d86994d77f2e2122082439/eyJfcmFpbHMiOnsibWVzc2FnZSI6IkJBaDdCem9MWm05eWJXRjBTU0lKYW5CbFp3WTZCa1ZVT2d0eVpYTnBlbVZKSWdneU1EQUdPd1pVIiwiZXhwIjpudWxsLCJwdXIiOiJ2YXJpYXRpb24ifX0=--1d2217304cc00a67dcaf61a98c73c4f2d55b6510/lady%20recreationnal%20club2.jpeg"}, "medium": {"url": "https://sportplaces.api.decathlon.com/rails/active_storage/representations/redirect/eyJfcmFpbHMiOnsibWVzc2FnZSI6IkJBaHBDUT09IiwiZXhwIjpudWxsLCJwdXIiOiJibG9iX2lkIn19--33bdd731ea9024ddb3d86994d77f2e2122082439/eyJfcmFpbHMiOnsibWVzc2FnZSI6IkJBaDdCem9MWm05eWJXRjBTU0lKYW5CbFp3WTZCa1ZVT2d0eVpYTnBlbVZKSWdreE1ESTBCanNHVkE9PSIsImV4cCI6bnVsbCwicHVyIjoidmFyaWF0aW9uIn19--8c69067a871b59ec2f8ba6a175e21601aeb336f9/lady%20recreationnal%20club2.jpeg"}}]}, "tags": ["members_only", "floodlight", "shower", "changing_room", "water_fountain", "wheelchair_accessible", "car_park"], "attributes": [{"name": "type_of_place", "value": "club", "type": "String"}]}], "reviews": [], "notes": "Ladies' Recreation Club is open only to its members from 7am to 12pm. It is one of the most famous clubs on Hong Kong island, located in about 10 minutes from Central by car. It is the only place in Hong Kong equipped with three surfaces (hard, artificial clay and grass). The price to book a court for one hour is 84 HKD.", "photo_reference": null, "updated_at": "2020-06-22 18:26:21 UTC", "created_at": "2019-01-21 01:40:56 UTC", "attachments": [], "quality_indicator": 4, "featured": false, "featured_by": null}, "geometry": {"type": "Point", "coordinates": [114.1538264, 22.2754021, 0.0]}}, {"type": "Feature", "properties": {"uuid": "f5935f75-3866-4b28-9ebb-8f649bc684bb", "name": "LRC (Ladies' Recreation Club)", "slug": "lrc-ladies-recreation-club-7bacb250-a3a7-4b1a-8b61-57dd4fe3f001", "proximity": 0.76519490599, "user": {"identifier": "HRAKOT22", "first_name": "Heri", "last_name": "Heri", "ambassador": true, "staff": true, "admin": true}, "partner": null, "partner_identifier": null, "google_place_id": null, "contact_details": {"email": null, "phone": null, "website": null, "booking_url": null, "facebook_username": null}, "address_components": {"address": "10 Old Peak Road, Mid-Levels", "city": null, "postal_code": null, "province": null, "country": "CN"}, "activities": [{"sport_id": 134, "photo_reference": null, "booking_url": null, "title": null, "user": {"identifier": "HRAKOT22", "first_name": "Heri", "last_name": "Heri", "ambassador": true, "staff": true, "admin": true}, "image": null, "tags": [], "attributes": []}], "reviews": [], "notes": null, "photo_reference": null, "updated_at": "2020-06-22 21:21:35 UTC", "created_at": "2020-03-17 18:20:27 UTC", "attachments": [], "quality_indicator": 1, "featured": false, "featured_by": null}, "geometry": {"type": "Linestring", "coordinates": [[114.15373095722953, 22.27543637265981, 0.0], [114.15372425170699, 22.275338723487835, 0.0], [114.15396975765094, 22.275324138976316, 0.0], [114.15397654699251, 22.275421788148293, 0.0], [114.15373095722953, 22.27543637265981, 0.0]]}}, {"type": "Feature", "properties": {"uuid": "23fb7202-4b6d-4e89-8a6e-7d5fcf1e2c74", "name": "LRC (Ladies' Recreation Club)", "slug": "lrc-ladies-recreation-club-8abb80c0-0b51-4774-91e3-20b5806a27e5", "proximity": 0.77424303856, "user": {"identifier": "HRAKOT22", "first_name": "Heri", "last_name": "Heri", "ambassador": true, "staff": true, "admin": true}, "partner": null, "partner_identifier": null, "google_place_id": null, "contact_details": {"email": null, "phone": null, "website": null, "booking_url": null, "facebook_username": null}, "address_components": {"address": "10 Old Peak Road, Mid-Levels", "city": null, "postal_code": null, "province": null, "country": "CN"}, "activities": [{"sport_id": 134, "photo_reference": null, "booking_url": null, "title": null, "user": {"identifier": "HRAKOT22", "first_name": "Heri", "last_name": "Heri", "ambassador": true, "staff": true, "admin": true}, "image": null, "tags": [], "attributes": []}], "reviews": [], "notes": null, "photo_reference": null, "updated_at": "2020-06-22 21:21:34 UTC", "created_at": "2020-03-17 18:20:24 UTC", "attachments": [], "quality_indicator": 1, "featured": false, "featured_by": null}, "geometry": {"type": "Linestring", "coordinates": [[114.15413622224798, 22.275212743483138, 0.0], [114.15410923251972, 22.274947623885765, 0.0], [114.15423135684898, 22.274936978868737, 0.0], [114.1542583465772, 22.27520209846611, 0.0], [114.15413622224798, 22.275212743483138, 0.0]]}}, {"type": "Feature", "properties": {"uuid": "1d6d0115-0fa8-4c29-be18-1d8f4778962f", "name": "LRC (Ladies' Recreation Club)", "slug": "lrc-ladies-recreation-club-1093293d-ed61-4ca5-bbfb-43c61f37a4ff", "proximity": 0.78456467297, "user": {"identifier": "HRAKOT22", "first_name": "Heri", "last_name": "Heri", "ambassador": true, "staff": true, "admin": true}, "partner": null, "partner_identifier": null, "google_place_id": null, "contact_details": {"email": null, "phone": null, "website": null, "booking_url": null, "facebook_username": null}, "address_components": {"address": "10 Old Peak Road, Mid-Levels", "city": null, "postal_code": null, "province": null, "country": "CN"}, "activities": [{"sport_id": 134, "photo_reference": null, "booking_url": null, "title": null, "user": {"identifier": "HRAKOT22", "first_name": "Heri", "last_name": "Heri", "ambassador": true, "staff": true, "admin": true}, "image": null, "tags": [], "attributes": []}], "reviews": [], "notes": null, "photo_reference": null, "updated_at": "2020-06-22 21:21:34 UTC", "created_at": "2020-03-17 18:20:23 UTC", "attachments": [], "quality_indicator": 1, "featured": false, "featured_by": null}, "geometry": {"type": "Linestring", "coordinates": [[114.15374713430265, 22.27524266687746, 0.0], [114.153737495114, 22.27514736463837, 0.0], [114.15398727582857, 22.275125571690126, 0.0], [114.15399699883625, 22.275220957748246, 0.0], [114.15374713430265, 22.27524266687746, 0.0]]}}, {"type": "Feature", "properties": {"uuid": "ee205f2b-1a5a-48ea-b36c-ed71835a1baa", "name": "LRC (Ladies' Recreation Club)", "slug": "lrc-ladies-recreation-club-6163580d-04a5-42c9-a398-7b3f917f2c0d", "proximity": 0.80690309109, "user": {"identifier": "HRAKOT22", "first_name": "Heri", "last_name": "Heri", "ambassador": true, "staff": true, "admin": true}, "partner": null, "partner_identifier": null, "google_place_id": null, "contact_details": {"email": null, "phone": null, "website": null, "booking_url": null, "facebook_username": null}, "address_components": {"address": "10 Old Peak Road, Mid-Levels", "city": null, "postal_code": null, "province": null, "country": "CN"}, "activities": [{"sport_id": 134, "photo_reference": null, "booking_url": null, "title": null, "user": {"identifier": "HRAKOT22", "first_name": "Heri", "last_name": "Heri", "ambassador": true, "staff": true, "admin": true}, "image": null, "tags": [], "attributes": []}], "reviews": [], "notes": null, "photo_reference": null, "updated_at": "2020-06-22 21:10:47 UTC", "created_at": "2020-03-17 16:39:22 UTC", "attachments": [], "quality_indicator": 1, "featured": false, "featured_by": null}, "geometry": {"type": "Linestring", "coordinates": [[114.154511396234, 22.27480311987506, 0.0], [114.15466227049114, 22.27500747067441, 0.0], [114.15453453028675, 22.275088272221012, 0.0], [114.15438365602967, 22.274883921421633, 0.0], [114.154511396234, 22.27480311987506, 0.0]]}}]}}