{"links": {"self": "https://sportplaces.api.decathlon.com/api/v1/places?origin=114.25904979999999%2C22.31124357&page=1&radius=2", "first": "https://sportplaces.api.decathlon.com/api/v1/places?origin=114.25904979999999%2C22.31124357&page=1&radius=2", "next": "https://sportplaces.api.decathlon.com/api/v1/places?origin=114.25904979999999%2C22.31124357&page=2&radius=2", "last": "https://sportplaces.api.decathlon.com/api/v1/places?origin=114.25904979999999%2C22.31124357&page=15&radius=2"}, "count": 146, "data": {"type": "FeatureCollection", "features": [{"type": "Feature", "properties": {"uuid": "be63a453-5ce0-427c-9d3a-ddf34fb6cdc8", "name": "Under review, proposed: Tong Ming Street Park", "slug": "tong-ming-street-park", "proximity": 0.17124545781, "user": {"identifier": "HRAKOT22", "first_name": "Heri", "last_name": "Heri", "ambassador": true, "staff": true, "admin": true}, "partner": null, "partner_identifier": null, "google_place_id": null, "contact_details": {"email": null, "phone": null, "website": null, "booking_url": null, "facebook_username": null}, "address_components": {"address": "Tong Ming Street, Tseung Kwan O", "city": null, "postal_code": null, "province": null, "country": "CN"}, "activities": [{"sport_id": 78, "photo_reference": null, "booking_url": null, "title": null, "user": {"identifier": "HRAKOT22", "first_name": "Heri", "last_name": "Heri", "ambassador": true, "staff": true, "admin": true}, "image": null, "tags": [], "attributes": []}], "reviews": [], "notes": null, "photo_reference": null, "updated_at": "2020-06-22 20:44:26 UTC", "created_at": "2020-03-17 12:16:24 UTC", "attachments": [], "quality_indicator": 1, "featured": false, "featured_by": null}, "geometry": {"type": "Linestring", "coordinates": [[114.25963135850401, 22.309794883415464, 0.0], [114.25972339180083, 22.309562620878523, 0.0], [114.25957654085727, 22.309512832373656, 0.0], [114.25948459137942, 22.309745094910596, 0.0], [114.25963135850401, 22.309794883415464, 0.0]]}}, {"type": "Feature", "properties": {"uuid": "00aca955-15a3-430b-96bb-e14c347812e6", "name": "Under review, proposed: \u570b\u5bcc\u4e94\u91d1", "slug": "dbf03004-e435-4926-b0d6-9b9d0a941114", "proximity": 0.17204951801, "user": {"identifier": "HRAKOT22", "first_name": "Heri", "last_name": "Heri", "ambassador": true, "staff": true, "admin": true}, "partner": null, "partner_identifier": null, "google_place_id": null, "contact_details": {"email": null, "phone": null, "website": null, "booking_url": null, "facebook_username": null}, "address_components": {"address": "\u5bcc\u5eb7\u82b1\u57121\u865f\u5730\u4e0b\u92ea, Tseung Kwan O", "city": null, "postal_code": null, "province": null, "country": "CN"}, "activities": [{"sport_id": 78, "photo_reference": null, "booking_url": null, "title": null, "user": {"identifier": "HRAKOT22", "first_name": "Heri", "last_name": "Heri", "ambassador": true, "staff": true, "admin": true}, "image": null, "tags": [], "attributes": []}], "reviews": [], "notes": null, "photo_reference": null, "updated_at": "2020-06-22 20:46:59 UTC", "created_at": "2020-03-17 13:24:37 UTC", "attachments": [], "quality_indicator": 0, "featured": false, "featured_by": null}, "geometry": {"type": "Linestring", "coordinates": [[114.26065369923407, 22.310811356813304, 0.0], [114.26041297097493, 22.310726951048338, 0.0], [114.2603592429756, 22.310858295471064, 0.0], [114.26059997123474, 22.310942617417, 0.0], [114.26065369923407, 22.310811356813304, 0.0]]}}, {"type": "Feature", "properties": {"uuid": "ce3b386c-8484-44e5-aa20-fee7fb8b83cd", "name": "Under review, proposed: Tong Ming Street Park", "slug": "tong-ming-street-park-57dff12e-0610-415b-9f0f-f3c7db7862f3", "proximity": 0.17228231383, "user": {"identifier": "HRAKOT22", "first_name": "Heri", "last_name": "Heri", "ambassador": true, "staff": true, "admin": true}, "partner": null, "partner_identifier": null, "google_place_id": null, "contact_details": {"email": null, "phone": null, "website": null, "booking_url": null, "facebook_username": null}, "address_components": {"address": "Tong Ming Street, Tseung Kwan O", "city": null, "postal_code": null, "province": null, "country": "CN"}, "activities": [{"sport_id": 78, "photo_reference": null, "booking_url": null, "title": null, "user": {"identifier": "HRAKOT22", "first_name": "Heri", "last_name": "Heri", "ambassador": true, "staff": true, "admin": true}, "image": null, "tags": [], "attributes": []}], "reviews": [], "notes": null, "photo_reference": null, "updated_at": "2020-06-22 20:44:26 UTC", "created_at": "2020-03-17 12:16:25 UTC", "attachments": [], "quality_indicator": 1, "featured": false, "featured_by": null}, "geometry": {"type": "Linestring", "coordinates": [[114.2594599485841, 22.309735288083886, 0.0], [114.2595504731384, 22.30950227117566, 0.0], [114.25940026943351, 22.30945239885179, 0.0], [114.25930974487926, 22.309685331940983, 0.0], [114.2594599485841, 22.309735288083886, 0.0]]}}, {"type": "Feature", "properties": {"uuid": "2b5d9d9b-3f04-4a16-a0c6-9a9b6bcf61ba", "name": "Under review, proposed: \u76c8\u591a\u5831\u7d19\u96dc\u8a8c", "slug": "eeb8729a-8640-48ba-842f-3b6cc5fe5989", "proximity": 0.19658106564, "user": {"identifier": "HRAKOT22", "first_name": "Heri", "last_name": "Heri", "ambassador": true, "staff": true, "admin": true}, "partner": null, "partner_identifier": null, "google_place_id": null, "contact_details": {"email": null, "phone": null, "website": null, "booking_url": null, "facebook_username": null}, "address_components": {"address": "Tseung Kwan O", "city": null, "postal_code": null, "province": null, "country": "CN"}, "activities": [{"sport_id": 78, "photo_reference": null, "booking_url": null, "title": null, "user": {"identifier": "HRAKOT22", "first_name": "Heri", "last_name": "Heri", "ambassador": true, "staff": true, "admin": true}, "image": null, "tags": [], "attributes": []}], "reviews": [], "notes": null, "photo_reference": null, "updated_at": "2020-06-22 20:47:00 UTC", "created_at": "2020-03-17 13:24:42 UTC", "attachments": [], "quality_indicator": 1, "featured": false, "featured_by": null}, "geometry": {"type": "Linestring", "coordinates": [[114.26092309360206, 22.31090699432852, 0.0], [114.26067859348649, 22.310823678210966, 0.0], [114.26062779915327, 22.310951334596297, 0.0], [114.26087229926884, 22.31103465071385, 0.0], [114.26092309360206, 22.31090699432852, 0.0]]}}, {"type": "Feature", "properties": {"uuid": "9e8fc7d1-9da1-45dd-94b4-9cdbf7dc171b", "name": "Under review, proposed: Crowne Plaza Hong Kong Kowloon East - Private Swimming Pool", "slug": "crowne-plaza-hong-kong-kowloon-east-private-swimming-pool", "proximity": 0.23492302378, "user": {"identifier": "HRAKOT22", "first_name": "Heri", "last_name": "Heri", "ambassador": true, "staff": true, "admin": true}, "partner": null, "partner_identifier": null, "google_place_id": null, "contact_details": {"email": null, "phone": null, "website": null, "booking_url": null, "facebook_username": null}, "address_components": {"address": "3/F (Portion) & 5/F (Portion), Crowne Plaza Hong Kong Kowloon East, 3 Tong Tak Street, Tseung Kwan O, Sai Kung, New Territories", "city": null, "postal_code": null, "province": null, "country": "CN"}, "activities": [{"sport_id": 78, "photo_reference": null, "booking_url": null, "title": null, "user": {"identifier": "HRAKOT22", "first_name": "Heri", "last_name": "Heri", "ambassador": true, "staff": true, "admin": true}, "image": null, "tags": [], "attributes": []}], "reviews": [], "notes": null, "photo_reference": null, "updated_at": "2020-06-22 20:44:26 UTC", "created_at": "2020-03-17 12:16:28 UTC", "attachments": [], "quality_indicator": 1, "featured": false, "featured_by": null}, "geometry": {"type": "Linestring", "coordinates": [[114.25983981643594, 22.30925349628947, 0.0], [114.25992832933343, 22.309026765808625, 0.0], [114.25978994411207, 22.30898058152215, 0.0], [114.25970143121452, 22.309207228183965, 0.0], [114.25983981643594, 22.30925349628947, 0.0]]}}, {"type": "Feature", "properties": {"uuid": "8d196445-37a7-44f9-abb4-64eaf70ea6bd", "name": "Under review, proposed: Wedding Garden", "slug": "wedding-garden", "proximity": 0.23559506754, "user": {"identifier": "HRAKOT22", "first_name": "Heri", "last_name": "Heri", "ambassador": true, "staff": true, "admin": true}, "partner": null, "partner_identifier": null, "google_place_id": null, "contact_details": {"email": null, "phone": null, "website": null, "booking_url": null, "facebook_username": null}, "address_components": {"address": "3/F (Portion A), Crowne Plaza Hong Kong Kowloon East, 3 Tong Tak Street, Tseung Kwan O, Sai Kung, New Territories", "city": null, "postal_code": null, "province": null, "country": "CN"}, "activities": [{"sport_id": 78, "photo_reference": null, "booking_url": null, "title": null, "user": {"identifier": "HRAKOT22", "first_name": "Heri", "last_name": "Heri", "ambassador": true, "staff": true, "admin": true}, "image": null, "tags": [], "attributes": []}], "reviews": [], "notes": null, "photo_reference": null, "updated_at": "2020-06-22 20:44:26 UTC", "created_at": "2020-03-17 12:16:29 UTC", "attachments": [], "quality_indicator": 1, "featured": false, "featured_by": null}, "geometry": {"type": "Linestring", "coordinates": [[114.25967502821953, 22.309197086081127, 0.0], [114.2597647984025, 22.308973875999612, 0.0], [114.25962255750568, 22.30892484186603, 0.0], [114.25953287114169, 22.309148051947545, 0.0], [114.25967502821953, 22.309197086081127, 0.0]]}}, {"type": "Feature", "properties": {"uuid": "774183b6-84d3-4ca0-b245-7192ad1bc14e", "name": "Under review, proposed: Tseung Kwan O Catholic Primary School; Tong Yin Street", "slug": "tseung-kwan-o-catholic-primary-school-tong-yin-street", "proximity": 0.2527643335, "user": {"identifier": "HRAKOT22", "first_name": "Heri", "last_name": "Heri", "ambassador": true, "staff": true, "admin": true}, "partner": null, "partner_identifier": null, "google_place_id": null, "contact_details": {"email": null, "phone": null, "website": null, "booking_url": null, "facebook_username": null}, "address_components": {"address": "Hong Kong", "city": null, "postal_code": null, "province": null, "country": "CN"}, "activities": [{"sport_id": 78, "photo_reference": null, "booking_url": null, "title": null, "user": {"identifier": "HRAKOT22", "first_name": "Heri", "last_name": "Heri", "ambassador": true, "staff": true, "admin": true}, "image": null, "tags": [], "attributes": []}], "reviews": [], "notes": null, "photo_reference": null, "updated_at": "2020-06-22 20:44:26 UTC", "created_at": "2020-03-17 12:16:22 UTC", "attachments": [], "quality_indicator": 1, "featured": false, "featured_by": null}, "geometry": {"type": "Linestring", "coordinates": [[114.25817978051242, 22.309109327554893, 0.0], [114.25828656595883, 22.308837753892078, 0.0], [114.25810484629807, 22.30877664981793, 0.0], [114.25799814467064, 22.309048223480744, 0.0], [114.25817978051242, 22.309109327554893, 0.0]]}}, {"type": "Feature", "properties": {"uuid": "a29f5506-9718-4257-b00b-f92638920d0c", "name": "Under review, proposed: \u9999\u6e2f\u6559\u6703\u5c07\u8ecd\u6fb3\u805a\u6703\u6240", "slug": "87d302a7-3895-4e58-853d-ed3143c01950", "proximity": 0.26453534099, "user": {"identifier": "HRAKOT22", "first_name": "Heri", "last_name": "Heri", "ambassador": true, "staff": true, "admin": true}, "partner": null, "partner_identifier": null, "google_place_id": null, "contact_details": {"email": null, "phone": null, "website": null, "booking_url": null, "facebook_username": null}, "address_components": {"address": "\u5c07\u8ecd\u6fb3 \u4ec1\u611b \u5802 \u7530\u5bb6 \u70b3 \u5c0f\u5b78 \u5730\u4e0b \u6d3b\u52d5 \u5ba4", "city": null, "postal_code": null, "province": null, "country": "CN"}, "activities": [{"sport_id": 78, "photo_reference": null, "booking_url": null, "title": null, "user": {"identifier": "HRAKOT22", "first_name": "Heri", "last_name": "Heri", "ambassador": true, "staff": true, "admin": true}, "image": null, "tags": [], "attributes": []}], "reviews": [], "notes": null, "photo_reference": null, "updated_at": "2020-06-22 20:47:07 UTC", "created_at": "2020-03-17 13:25:42 UTC", "attachments": [], "quality_indicator": 1, "featured": false, "featured_by": null}, "geometry": {"type": "Linestring", "coordinates": [[114.26103968587523, 22.30973403079841, 0.0], [114.26079895761609, 22.309649625033444, 0.0], [114.2607452296167, 22.30978105327523, 0.0], [114.26098595787585, 22.309865375221136, 0.0], [114.26103968587523, 22.30973403079841, 0.0]]}}, {"type": "Feature", "properties": {"uuid": "30337c3d-85ca-4c6a-90ba-5b63a2b1be0c", "name": "Under review, proposed: \u9999\u6e2f\u6559\u6703\u5c07\u8ecd\u6fb3\u805a\u6703\u6240", "slug": "58ec04ea-5720-45ec-949f-648e542978f8", "proximity": 0.28027928793, "user": {"identifier": "HRAKOT22", "first_name": "Heri", "last_name": "Heri", "ambassador": true, "staff": true, "admin": true}, "partner": null, "partner_identifier": null, "google_place_id": null, "contact_details": {"email": null, "phone": null, "website": null, "booking_url": null, "facebook_username": null}, "address_components": {"address": "\u5c07\u8ecd\u6fb3 \u4ec1\u611b \u5802 \u7530\u5bb6 \u70b3 \u5c0f\u5b78 \u5730\u4e0b \u6d3b\u52d5 \u5ba4", "city": null, "postal_code": null, "province": null, "country": "CN"}, "activities": [{"sport_id": 78, "photo_reference": null, "booking_url": null, "title": null, "user": {"identifier": "HRAKOT22", "first_name": "Heri", "last_name": "Heri", "ambassador": true, "staff": true, "admin": true}, "image": null, "tags": [], "attributes": []}], "reviews": [], "notes": null, "photo_reference": null, "updated_at": "2020-06-22 20:46:59 UTC", "created_at": "2020-03-17 13:24:36 UTC", "attachments": [], "quality_indicator": 1, "featured": false, "featured_by": null}, "geometry": {"type": "Linestring", "coordinates": [[114.26110179577773, 22.30958198307485, 0.0], [114.2608571280241, 22.309498750776328, 0.0], [114.26080633369088, 22.30962649098069, 0.0], [114.26105091762548, 22.30970963946018, 0.0], [114.26110179577773, 22.30958198307485, 0.0]]}}, {"type": "Feature", "properties": {"uuid": "96cf7841-409b-4dd8-acc3-77a145897db7", "name": "Under review, proposed: \u53f2\u4e39\u798f\u6e38\u6cf3\u5b78\u6821 stanford swim school", "slug": "stanford-swim-school-e0307bf4-d2d2-4283-a7be-4940120364e0", "proximity": 0.28936315147, "user": {"identifier": "HRAKOT22", "first_name": "Heri", "last_name": "Heri", "ambassador": true, "staff": true, "admin": true}, "partner": null, "partner_identifier": null, "google_place_id": null, "contact_details": {"email": null, "phone": null, "website": null, "booking_url": null, "facebook_username": null}, "address_components": {"address": "P.l.k. Wong Wing Shu Primary School, \u5c07\u8ecd\u6fb3 \u865f, 2 Tong Yin Street, Tseung Kwan O", "city": null, "postal_code": null, "province": null, "country": "CN"}, "activities": [{"sport_id": 78, "photo_reference": null, "booking_url": null, "title": null, "user": {"identifier": "HRAKOT22", "first_name": "Heri", "last_name": "Heri", "ambassador": true, "staff": true, "admin": true}, "image": null, "tags": [], "attributes": []}], "reviews": [], "notes": null, "photo_reference": null, "updated_at": "2020-06-22 20:46:59 UTC", "created_at": "2020-03-17 13:24:38 UTC", "attachments": [], "quality_indicator": 1, "featured": false, "featured_by": null}, "geometry": {"type": "Linestring", "coordinates": [[114.25718082529221, 22.3092931426915, 0.0], [114.25742607977907, 22.30937654262806, 0.0], [114.25747972395936, 22.309241593986968, 0.0], [114.25723446947251, 22.309158194050383, 0.0], [114.25718082529221, 22.3092931426915, 0.0]]}}]}}