{"links": {"self": "https://sportplaces.api.decathlon.com/api/v1/places?origin=114.21337949999999%2C22.32136511&page=1&radius=2", "first": "https://sportplaces.api.decathlon.com/api/v1/places?origin=114.21337949999999%2C22.32136511&page=1&radius=2", "next": "https://sportplaces.api.decathlon.com/api/v1/places?origin=114.21337949999999%2C22.32136511&page=2&radius=2", "last": "https://sportplaces.api.decathlon.com/api/v1/places?origin=114.21337949999999%2C22.32136511&page=14&radius=2"}, "count": 139, "data": {"type": "FeatureCollection", "features": [{"type": "Feature", "properties": {"uuid": "2b4f309b-cc53-4e70-b7ae-c8fbe76336f8", "name": "Under review, proposed: \u8cb4\u65b0\u6a13", "slug": "43c5ca0a-e1d8-43f0-b772-e2e306323796", "proximity": 0.17450852112, "user": {"identifier": "HRAKOT22", "first_name": "Heri", "last_name": "Heri", "ambassador": true, "staff": true, "admin": true}, "partner": null, "partner_identifier": null, "google_place_id": null, "contact_details": {"email": null, "phone": null, "website": null, "booking_url": null, "facebook_username": null}, "address_components": {"address": "Ngau Tau Kok Municipal Services Building, \u865f, Ngau Tau Kok Road, Ngau Tau Kok", "city": null, "postal_code": null, "province": null, "country": "CN"}, "activities": [{"sport_id": 78, "photo_reference": null, "booking_url": null, "title": null, "user": {"identifier": "HRAKOT22", "first_name": "Heri", "last_name": "Heri", "ambassador": true, "staff": true, "admin": true}, "image": null, "tags": [], "attributes": []}], "reviews": [], "notes": null, "photo_reference": null, "updated_at": "2020-06-22 20:40:11 UTC", "created_at": "2020-03-17 02:09:22 UTC", "attachments": [], "quality_indicator": 0, "featured": false, "featured_by": null}, "geometry": {"type": "Linestring", "coordinates": [[114.21506695862524, 22.321228888991527, 0.0], [114.21490267332302, 22.321267864841303, 0.0], [114.21483419317411, 22.321014144632244, 0.0], [114.21499847847633, 22.320975168782468, 0.0], [114.21506695862524, 22.321228888991527, 0.0]]}}, {"type": "Feature", "properties": {"uuid": "3fd5f7f7-790e-49a5-b2f7-859e77ef8467", "name": "Telford Recreation Club", "slug": "telford-recreation-club", "proximity": 0.25033218023, "user": {"identifier": "d841cbdf-529b-4b87-b3dc-222857338d6d", "first_name": "JULES", "last_name": "DE LEUSSE", "ambassador": true, "staff": true, "admin": false}, "partner": null, "partner_identifier": null, "google_place_id": "ChIJH8vqPTUBBDQRKhoSkCajVuY", "contact_details": {"email": null, "phone": "+852 2796 6883", "website": null, "booking_url": null, "facebook_username": null}, "address_components": {"address": "33 Wai Yip Street", "city": "Kowloon Bay", "postal_code": null, "province": "Kowloon", "country": "HK"}, "activities": [{"sport_id": 134, "photo_reference": "", "booking_url": null, "title": null, "user": {"identifier": "d841cbdf-529b-4b87-b3dc-222857338d6d", "first_name": "JULES", "last_name": "DE LEUSSE", "ambassador": true, "staff": true, "admin": false}, "image": null, "tags": ["members_only", "shower", "changing_room"], "attributes": [{"name": "type_of_place", "value": "club", "type": "String"}]}], "reviews": [], "notes": "Only open to club members. Telford Recreation Club offers 3 outdoor hard courts.", "photo_reference": null, "updated_at": "2020-06-22 18:26:35 UTC", "created_at": "2019-01-23 06:56:23 UTC", "attachments": [], "quality_indicator": 4, "featured": false, "featured_by": null}, "geometry": {"type": "Point", "coordinates": [114.2121723, 22.323327, 0.0]}}, {"type": "Feature", "properties": {"uuid": "1bf7f9eb-5a62-46ca-9667-ea09c9b793b3", "name": "Ngau Tau Kok Park", "slug": "ngau-tau-kok-park", "proximity": 0.26779091923, "user": {"identifier": "HRAKOT22", "first_name": "Heri", "last_name": "Heri", "ambassador": true, "staff": true, "admin": true}, "partner": null, "partner_identifier": null, "google_place_id": null, "contact_details": {"email": null, "phone": null, "website": null, "booking_url": null, "facebook_username": null}, "address_components": {"address": "199\u865f Kwun Tong Road, Ngau Tau Kok", "city": null, "postal_code": null, "province": null, "country": "CN"}, "activities": [{"sport_id": 81, "photo_reference": null, "booking_url": null, "title": null, "user": {"identifier": "HRAKOT22", "first_name": "Heri", "last_name": "Heri", "ambassador": true, "staff": true, "admin": true}, "image": null, "tags": [], "attributes": []}], "reviews": [], "notes": null, "photo_reference": null, "updated_at": "2020-06-22 21:05:47 UTC", "created_at": "2020-03-17 15:54:45 UTC", "attachments": [], "quality_indicator": 1, "featured": false, "featured_by": null}, "geometry": {"type": "Linestring", "coordinates": [[114.2151450779628, 22.32313987909606, 0.0], [114.21477887261318, 22.323045750323445, 0.0], [114.21492798667066, 22.32254912256039, 0.0], [114.21529427583931, 22.322643251333034, 0.0], [114.2151450779628, 22.32313987909606, 0.0]]}}, {"type": "Feature", "properties": {"uuid": "30186f8f-013c-4d24-8f0d-1fdd284d131d", "name": "Under review, proposed: Caritas Ngau Tau Kok Clinic", "slug": "caritas-ngau-tau-kok-clinic", "proximity": 0.3504364292, "user": {"identifier": "HRAKOT22", "first_name": "Heri", "last_name": "Heri", "ambassador": true, "staff": true, "admin": true}, "partner": null, "partner_identifier": null, "google_place_id": null, "contact_details": {"email": null, "phone": null, "website": null, "booking_url": null, "facebook_username": null}, "address_components": {"address": "Ngau Tau Kok Caritas Centre, 1 On Tak Road, Ngau Tau Kok", "city": null, "postal_code": null, "province": null, "country": "CN"}, "activities": [{"sport_id": 78, "photo_reference": null, "booking_url": null, "title": null, "user": {"identifier": "HRAKOT22", "first_name": "Heri", "last_name": "Heri", "ambassador": true, "staff": true, "admin": true}, "image": null, "tags": [], "attributes": []}], "reviews": [], "notes": null, "photo_reference": null, "updated_at": "2020-06-22 20:49:46 UTC", "created_at": "2020-03-17 13:47:12 UTC", "attachments": [], "quality_indicator": 1, "featured": false, "featured_by": null}, "geometry": {"type": "Linestring", "coordinates": [[114.21672221686396, 22.320779954257574, 0.0], [114.21686026680925, 22.32057929149559, 0.0], [114.21697216521659, 22.320645173254547, 0.0], [114.21683403145227, 22.320845836016503, 0.0], [114.21672221686396, 22.320779954257574, 0.0]]}}, {"type": "Feature", "properties": {"uuid": "e5358cfc-a978-467c-9a7f-616badb3af22", "name": "Under review, proposed: Lok Wah Playground", "slug": "lok-wah-playground", "proximity": 0.44381965092, "user": {"identifier": "HRAKOT22", "first_name": "Heri", "last_name": "Heri", "ambassador": true, "staff": true, "admin": true}, "partner": null, "partner_identifier": null, "google_place_id": null, "contact_details": {"email": null, "phone": null, "website": null, "booking_url": null, "facebook_username": null}, "address_components": {"address": "\u725b\u982d\u89d2\u6a02\u83ef\u5357\u90a8", "city": null, "postal_code": null, "province": null, "country": "CN"}, "activities": [{"sport_id": 81, "photo_reference": null, "booking_url": null, "title": null, "user": {"identifier": "HRAKOT22", "first_name": "Heri", "last_name": "Heri", "ambassador": true, "staff": true, "admin": true}, "image": null, "tags": [], "attributes": []}], "reviews": [], "notes": null, "photo_reference": null, "updated_at": "2020-06-22 20:40:47 UTC", "created_at": "2020-03-17 02:15:12 UTC", "attachments": [], "quality_indicator": 1, "featured": false, "featured_by": null}, "geometry": {"type": "Linestring", "coordinates": [[114.21768445934828, 22.321220590907387, 0.0], [114.21794237050892, 22.321224278944783, 0.0], [114.2179486569363, 22.320847344759073, 0.0], [114.21769074577566, 22.320843656721678, 0.0], [114.21768445934828, 22.321220590907387, 0.0]]}}, {"type": "Feature", "properties": {"uuid": "75601d1f-9862-4c78-b0ae-a1fd1688de2d", "name": "Under review, proposed: Hard-surface Pitches, Lok Wah Playground", "slug": "hard-surface-pitches-lok-wah-playground", "proximity": 0.4506204366, "user": {"identifier": "HRAKOT22", "first_name": "Heri", "last_name": "Heri", "ambassador": true, "staff": true, "admin": true}, "partner": null, "partner_identifier": null, "google_place_id": null, "contact_details": {"email": null, "phone": null, "website": null, "booking_url": null, "facebook_username": null}, "address_components": {"address": "Lok Wah South Estate, Ngau Tau Kok", "city": null, "postal_code": null, "province": null, "country": "CN"}, "activities": [{"sport_id": 78, "photo_reference": null, "booking_url": null, "title": null, "user": {"identifier": "HRAKOT22", "first_name": "Heri", "last_name": "Heri", "ambassador": true, "staff": true, "admin": true}, "image": null, "tags": [], "attributes": []}], "reviews": [], "notes": null, "photo_reference": null, "updated_at": "2020-06-22 20:40:47 UTC", "created_at": "2020-03-17 02:15:07 UTC", "attachments": [], "quality_indicator": 1, "featured": false, "featured_by": null}, "geometry": {"type": "Linestring", "coordinates": [[114.21769015904243, 22.320676353934346, 0.0], [114.21812031831331, 22.3201651416598, 0.0], [114.21796625893296, 22.32005416526178, 0.0], [114.21753609966208, 22.320565377536326, 0.0], [114.21769015904243, 22.320676353934346, 0.0]]}}, {"type": "Feature", "properties": {"uuid": "504cc74a-3777-4d61-a892-fd1a73ca44e5", "name": "Under review, proposed: Lok Wah Playground", "slug": "lok-wah-playground-1e21eab3-b6c8-4597-83be-9ac5f653e7f5", "proximity": 0.4752740837, "user": {"identifier": "HRAKOT22", "first_name": "Heri", "last_name": "Heri", "ambassador": true, "staff": true, "admin": true}, "partner": null, "partner_identifier": null, "google_place_id": null, "contact_details": {"email": null, "phone": null, "website": null, "booking_url": null, "facebook_username": null}, "address_components": {"address": "\u725b\u982d\u89d2\u6a02\u83ef\u5357\u90a8", "city": null, "postal_code": null, "province": null, "country": "CN"}, "activities": [{"sport_id": 81, "photo_reference": null, "booking_url": null, "title": null, "user": {"identifier": "HRAKOT22", "first_name": "Heri", "last_name": "Heri", "ambassador": true, "staff": true, "admin": true}, "image": null, "tags": [], "attributes": []}], "reviews": [], "notes": null, "photo_reference": null, "updated_at": "2020-06-22 20:49:46 UTC", "created_at": "2020-03-17 13:47:07 UTC", "attachments": [], "quality_indicator": 1, "featured": false, "featured_by": null}, "geometry": {"type": "Linestring", "coordinates": [[114.21799023117603, 22.321228721353464, 0.0], [114.21824814233668, 22.321232325571827, 0.0], [114.21825442876406, 22.32085547520515, 0.0], [114.21799651760341, 22.320851870986786, 0.0], [114.21799023117603, 22.321228721353464, 0.0]]}}, {"type": "Feature", "properties": {"uuid": "2f7d9104-31ec-42a3-9852-c5670b2cd681", "name": "Under review, proposed: Man Kiu Association Primary School", "slug": "man-kiu-association-primary-school-d9e52109-ddcc-42a8-91d1-2713bf6fb991", "proximity": 0.4799134741, "user": {"identifier": "HRAKOT22", "first_name": "Heri", "last_name": "Heri", "ambassador": true, "staff": true, "admin": true}, "partner": null, "partner_identifier": null, "google_place_id": null, "contact_details": {"email": null, "phone": null, "website": null, "booking_url": null, "facebook_username": null}, "address_components": {"address": "On Shin Road, Ngau Tau Kok", "city": null, "postal_code": null, "province": null, "country": "CN"}, "activities": [{"sport_id": 78, "photo_reference": null, "booking_url": null, "title": null, "user": {"identifier": "HRAKOT22", "first_name": "Heri", "last_name": "Heri", "ambassador": true, "staff": true, "admin": true}, "image": null, "tags": [], "attributes": []}], "reviews": [], "notes": null, "photo_reference": null, "updated_at": "2020-06-22 20:49:46 UTC", "created_at": "2020-03-17 13:47:14 UTC", "attachments": [], "quality_indicator": 1, "featured": false, "featured_by": null}, "geometry": {"type": "Linestring", "coordinates": [[114.21776517707582, 22.319904799747206, 0.0], [114.21776702109452, 22.319799187767245, 0.0], [114.21801487397136, 22.319803127261736, 0.0], [114.2180128623146, 22.319908739241725, 0.0], [114.21776517707582, 22.319904799747206, 0.0]]}}, {"type": "Feature", "properties": {"uuid": "4ae157de-347f-4862-91da-188d6da24b1f", "name": "Under review, proposed: Man Kiu Association Primary School", "slug": "man-kiu-association-primary-school", "proximity": 0.48290716903, "user": {"identifier": "HRAKOT22", "first_name": "Heri", "last_name": "Heri", "ambassador": true, "staff": true, "admin": true}, "partner": null, "partner_identifier": null, "google_place_id": null, "contact_details": {"email": null, "phone": null, "website": null, "booking_url": null, "facebook_username": null}, "address_components": {"address": "On Shin Road, Ngau Tau Kok", "city": null, "postal_code": null, "province": null, "country": "CN"}, "activities": [{"sport_id": 78, "photo_reference": null, "booking_url": null, "title": null, "user": {"identifier": "HRAKOT22", "first_name": "Heri", "last_name": "Heri", "ambassador": true, "staff": true, "admin": true}, "image": null, "tags": [], "attributes": []}], "reviews": [], "notes": null, "photo_reference": null, "updated_at": "2020-06-22 20:49:46 UTC", "created_at": "2020-03-17 13:47:13 UTC", "attachments": [], "quality_indicator": 1, "featured": false, "featured_by": null}, "geometry": {"type": "Linestring", "coordinates": [[114.21769309270854, 22.31965912616519, 0.0], [114.21769594255562, 22.319550748157184, 0.0], [114.21795796084882, 22.3195568669465, 0.0], [114.21795494336368, 22.319665244954507, 0.0], [114.21769309270854, 22.31965912616519, 0.0]]}}, {"type": "Feature", "properties": {"uuid": "87bd4e34-ced0-43db-868e-ef6b5d119260", "name": "\u4f50\u6566\u8c37\u6e38\u6cf3\u6c60 Jordan Valley Swimming Pool", "slug": "jordan-valley-swimming-pool", "proximity": 0.487202196, "user": {"identifier": "HRAKOT22", "first_name": "Heri", "last_name": "Heri", "ambassador": true, "staff": true, "admin": true}, "partner": null, "partner_identifier": null, "google_place_id": null, "contact_details": {"email": null, "phone": null, "website": null, "booking_url": null, "facebook_username": null}, "address_components": {"address": null, "city": null, "postal_code": null, "province": null, "country": "CN"}, "activities": [{"sport_id": 224, "photo_reference": null, "booking_url": null, "title": null, "user": {"identifier": "HRAKOT22", "first_name": "Heri", "last_name": "Heri", "ambassador": true, "staff": true, "admin": true}, "image": null, "tags": [], "attributes": []}], "reviews": [], "notes": null, "photo_reference": null, "updated_at": "2020-06-22 20:42:15 UTC", "created_at": "2020-03-17 02:27:14 UTC", "attachments": [], "quality_indicator": 2, "featured": false, "featured_by": null}, "geometry": {"type": "Linestring", "coordinates": [[114.21776785928483, 22.32300442754078, 0.0], [114.21785025339307, 22.323356635112134, 0.0], [114.21785804856302, 22.323730216536575, 0.0], [114.21938958991086, 22.32476412429304, 0.0], [114.21959679055732, 22.32399491703879, 0.0], [114.21795645210625, 22.322910634044263, 0.0], [114.21793214458705, 22.322894540790173, 0.0], [114.21776785928483, 22.32300442754078, 0.0]]}}]}}