{"links": {"self": "https://sportplaces.api.decathlon.com/api/v1/places?origin=113.97386270000001%2C22.39564258&page=1&radius=2", "first": "https://sportplaces.api.decathlon.com/api/v1/places?origin=113.97386270000001%2C22.39564258&page=1&radius=2", "next": "https://sportplaces.api.decathlon.com/api/v1/places?origin=113.97386270000001%2C22.39564258&page=2&radius=2", "last": "https://sportplaces.api.decathlon.com/api/v1/places?origin=113.97386270000001%2C22.39564258&page=12&radius=2"}, "count": 111, "data": {"type": "FeatureCollection", "features": [{"type": "Feature", "properties": {"uuid": "45ea9266-62b2-4234-a92b-98aa54ee8060", "name": "Under review, proposed: \u5229\u9054\u50a2\u4fec\u88dd\u4fee\u516c\u53f8", "slug": "3ed79636-aa1f-45b1-aa89-ff5c5c8a6f2a", "proximity": 0.21209327937, "user": {"identifier": "HRAKOT22", "first_name": "Heri", "last_name": "Heri", "ambassador": true, "staff": true, "admin": true}, "partner": null, "partner_identifier": null, "google_place_id": null, "contact_details": {"email": null, "phone": null, "website": null, "booking_url": null, "facebook_username": null}, "address_components": {"address": "San Hui", "city": null, "postal_code": null, "province": null, "country": "CN"}, "activities": [{"sport_id": 78, "photo_reference": null, "booking_url": null, "title": null, "user": {"identifier": "HRAKOT22", "first_name": "Heri", "last_name": "Heri", "ambassador": true, "staff": true, "admin": true}, "image": null, "tags": [], "attributes": []}], "reviews": [], "notes": null, "photo_reference": null, "updated_at": "2020-06-22 20:46:33 UTC", "created_at": "2020-03-17 13:21:17 UTC", "attachments": [], "quality_indicator": 1, "featured": false, "featured_by": null}, "geometry": {"type": "Linestring", "coordinates": [[113.97425739502114, 22.397522396600408, 0.0], [113.97440206666994, 22.397487444064183, 0.0], [113.97433928621513, 22.3972643178017, 0.0], [113.97419444692832, 22.397299186518893, 0.0], [113.97425739502114, 22.397522396600408, 0.0]]}}, {"type": "Feature", "properties": {"uuid": "0f8733c4-7d85-4d8e-9199-f1874c8063c2", "name": "Under review, proposed: \u5e03\u8c93\u98df\u5802", "slug": "a7c703ef-1471-46f3-84f7-31abf1ed23a7", "proximity": 0.21457350222, "user": {"identifier": "HRAKOT22", "first_name": "Heri", "last_name": "Heri", "ambassador": true, "staff": true, "admin": true}, "partner": null, "partner_identifier": null, "google_place_id": null, "contact_details": {"email": null, "phone": null, "website": null, "booking_url": null, "facebook_username": null}, "address_components": {"address": "Ming Ngai Street, San Hui", "city": null, "postal_code": null, "province": null, "country": "CN"}, "activities": [{"sport_id": 78, "photo_reference": null, "booking_url": null, "title": null, "user": {"identifier": "HRAKOT22", "first_name": "Heri", "last_name": "Heri", "ambassador": true, "staff": true, "admin": true}, "image": null, "tags": [], "attributes": []}], "reviews": [], "notes": null, "photo_reference": null, "updated_at": "2020-06-22 20:46:33 UTC", "created_at": "2020-03-17 13:21:19 UTC", "attachments": [], "quality_indicator": 0, "featured": false, "featured_by": null}, "geometry": {"type": "Linestring", "coordinates": [[113.9746967743855, 22.39741829336299, 0.0], [113.97484144603425, 22.397383340826764, 0.0], [113.97477858176046, 22.39716013074525, 0.0], [113.97463382629269, 22.397195083281474, 0.0], [113.9746967743855, 22.39741829336299, 0.0]]}}, {"type": "Feature", "properties": {"uuid": "f14f9954-716b-4064-aae0-eb644137d736", "name": "Under review, proposed: \u8000\u624d\u8b49\u5238", "slug": "d949fb22-a2d1-4453-aa0a-541976beb0e2", "proximity": 0.32515194869, "user": {"identifier": "HRAKOT22", "first_name": "Heri", "last_name": "Heri", "ambassador": true, "staff": true, "admin": true}, "partner": null, "partner_identifier": null, "google_place_id": null, "contact_details": {"email": null, "phone": null, "website": null, "booking_url": null, "facebook_username": null}, "address_components": {"address": "\u5730\u4e0b6\u865f, Paris London New York Cinema Shopping Centre, \u9109\u4e8b\u6703\u8def117\u865f, \u5c6f\u9580, San Hui", "city": null, "postal_code": null, "province": null, "country": "CN"}, "activities": [{"sport_id": 224, "photo_reference": null, "booking_url": null, "title": null, "user": {"identifier": "HRAKOT22", "first_name": "Heri", "last_name": "Heri", "ambassador": true, "staff": true, "admin": true}, "image": null, "tags": [], "attributes": []}], "reviews": [], "notes": null, "photo_reference": null, "updated_at": "2020-06-22 20:46:33 UTC", "created_at": "2020-03-17 13:21:20 UTC", "attachments": [], "quality_indicator": 0, "featured": false, "featured_by": null}, "geometry": {"type": "Linestring", "coordinates": [[113.97463759814912, 22.39848908149341, 0.0], [113.97476324287766, 22.398461924127133, 0.0], [113.97470683266931, 22.39825883061323, 0.0], [113.97457842191267, 22.398288418731426, 0.0], [113.97463759814912, 22.39848908149341, 0.0]]}}, {"type": "Feature", "properties": {"uuid": "8f7acfe7-c786-44f0-8677-210d8fa54d85", "name": "Under review, proposed: \u6ce2\u677f\u7cd6", "slug": "1ce559ee-dca8-47d5-9f89-4a25f928316a", "proximity": 0.38346445134, "user": {"identifier": "HRAKOT22", "first_name": "Heri", "last_name": "Heri", "ambassador": true, "staff": true, "admin": true}, "partner": null, "partner_identifier": null, "google_place_id": null, "contact_details": {"email": null, "phone": null, "website": null, "booking_url": null, "facebook_username": null}, "address_components": {"address": "133, San Hui", "city": null, "postal_code": null, "province": null, "country": "CN"}, "activities": [{"sport_id": 224, "photo_reference": null, "booking_url": null, "title": null, "user": {"identifier": "HRAKOT22", "first_name": "Heri", "last_name": "Heri", "ambassador": true, "staff": true, "admin": true}, "image": null, "tags": [], "attributes": []}], "reviews": [], "notes": null, "photo_reference": null, "updated_at": "2020-06-22 20:47:55 UTC", "created_at": "2020-03-17 13:32:24 UTC", "attachments": [], "quality_indicator": 0, "featured": false, "featured_by": null}, "geometry": {"type": "Linestring", "coordinates": [[113.97680557740495, 22.39776454978309, 0.0], [113.97678336536148, 22.397747534519652, 0.0], [113.97676534426967, 22.39771803022049, 0.0], [113.97676106949905, 22.397692884510946, 0.0], [113.9767725527064, 22.39765835106988, 0.0], [113.9767725527064, 22.39762515873332, 0.0], [113.97675964457551, 22.397595989710283, 0.0], [113.97675536980489, 22.397576040780706, 0.0], [113.97675679472843, 22.397548129043145, 0.0], [113.97677825240055, 22.397520217305583, 0.0], [113.97680264373884, 22.397505632794065, 0.0], [113.97683575225636, 22.39749909490959, 0.0], [113.97686877695486, 22.397524240619106, 0.0], [113.97688889352247, 22.397550727433128, 0.0], [113.97687011805937, 22.397654327756356, 0.0], [113.9769032265769, 22.397655668860864, 0.0], [113.97690079582497, 22.397707552841496, 0.0], [113.97692049329743, 22.39772205353401, 0.0], [113.97692342696354, 22.397746193415145, 0.0], [113.97690364567205, 22.39777192585788, 0.0], [113.97680557740495, 22.39776454978309, 0.0]]}}, {"type": "Feature", "properties": {"uuid": "55d9842a-553c-4063-b3c3-13335d6e1531", "name": "Under review, proposed: \u5e78\u798f\u6a13D\u5ea7", "slug": "d", "proximity": 0.41234951439, "user": {"identifier": "HRAKOT22", "first_name": "Heri", "last_name": "Heri", "ambassador": true, "staff": true, "admin": true}, "partner": null, "partner_identifier": null, "google_place_id": null, "contact_details": {"email": null, "phone": null, "website": null, "booking_url": null, "facebook_username": null}, "address_components": {"address": "75\u865f Castle Peak Road (San Hui), San Hui", "city": null, "postal_code": null, "province": null, "country": "CN"}, "activities": [{"sport_id": 81, "photo_reference": null, "booking_url": null, "title": null, "user": {"identifier": "HRAKOT22", "first_name": "Heri", "last_name": "Heri", "ambassador": true, "staff": true, "admin": true}, "image": null, "tags": [], "attributes": []}], "reviews": [], "notes": null, "photo_reference": null, "updated_at": "2020-06-22 20:47:56 UTC", "created_at": "2020-03-17 13:32:32 UTC", "attachments": [], "quality_indicator": 0, "featured": false, "featured_by": null}, "geometry": {"type": "Linestring", "coordinates": [[113.97772859258237, 22.396613630658322, 0.0], [113.97776253929021, 22.39643844888201, 0.0], [113.9780558220823, 22.396487063920404, 0.0], [113.97802187537445, 22.396662245696746, 0.0], [113.97772859258237, 22.396613630658322, 0.0]]}}, {"type": "Feature", "properties": {"uuid": "4bff3de3-1898-489b-b27f-fcfeff18ae5c", "name": "Under review, proposed: Hoh Fuk Tong College", "slug": "hoh-fuk-tong-college", "proximity": 0.41290636971, "user": {"identifier": "HRAKOT22", "first_name": "Heri", "last_name": "Heri", "ambassador": true, "staff": true, "admin": true}, "partner": null, "partner_identifier": null, "google_place_id": null, "contact_details": {"email": null, "phone": null, "website": null, "booking_url": null, "facebook_username": null}, "address_components": {"address": "Hong Kong", "city": null, "postal_code": null, "province": null, "country": "CN"}, "activities": [{"sport_id": 78, "photo_reference": null, "booking_url": null, "title": null, "user": {"identifier": "HRAKOT22", "first_name": "Heri", "last_name": "Heri", "ambassador": true, "staff": true, "admin": true}, "image": null, "tags": [], "attributes": []}], "reviews": [], "notes": null, "photo_reference": null, "updated_at": "2020-06-22 20:47:55 UTC", "created_at": "2020-03-17 13:32:28 UTC", "attachments": [], "quality_indicator": 1, "featured": false, "featured_by": null}, "geometry": {"type": "Linestring", "coordinates": [[113.9778144232709, 22.3962751694082, 0.0], [113.97783722204753, 22.396161175525037, 0.0], [113.9780764415641, 22.396201995393483, 0.0], [113.97805364278747, 22.396315989276644, 0.0], [113.9778144232709, 22.3962751694082, 0.0]]}}, {"type": "Feature", "properties": {"uuid": "65b9be4b-87d4-4fbd-a175-7edd3ee9db1f", "name": "Under review, proposed: Hoh Fuk Tong College", "slug": "hoh-fuk-tong-college-3f8b838a-e327-4f03-b8fd-f066c1f03377", "proximity": 0.41416271773, "user": {"identifier": "HRAKOT22", "first_name": "Heri", "last_name": "Heri", "ambassador": true, "staff": true, "admin": true}, "partner": null, "partner_identifier": null, "google_place_id": null, "contact_details": {"email": null, "phone": null, "website": null, "booking_url": null, "facebook_username": null}, "address_components": {"address": "Hong Kong", "city": null, "postal_code": null, "province": null, "country": "CN"}, "activities": [{"sport_id": 78, "photo_reference": null, "booking_url": null, "title": null, "user": {"identifier": "HRAKOT22", "first_name": "Heri", "last_name": "Heri", "ambassador": true, "staff": true, "admin": true}, "image": null, "tags": [], "attributes": []}], "reviews": [], "notes": null, "photo_reference": null, "updated_at": "2020-06-22 20:47:56 UTC", "created_at": "2020-03-17 13:32:33 UTC", "attachments": [], "quality_indicator": 1, "featured": false, "featured_by": null}, "geometry": {"type": "Linestring", "coordinates": [[113.97779774328359, 22.396416320657636, 0.0], [113.97782054206021, 22.396302242955443, 0.0], [113.97805976157679, 22.396343062823888, 0.0], [113.97803696280016, 22.39645714052608, 0.0], [113.97779774328359, 22.396416320657636, 0.0]]}}, {"type": "Feature", "properties": {"uuid": "6ddbadfe-f311-4a5e-9450-876cb65be497", "name": "ete! Tuen Mun Town Plaza I", "slug": "ete-tuen-mun-town-plaza-i", "proximity": 0.43150270075, "user": {"identifier": "HRAKOT22", "first_name": "Heri", "last_name": "Heri", "ambassador": true, "staff": true, "admin": true}, "partner": null, "partner_identifier": null, "google_place_id": null, "contact_details": {"email": null, "phone": null, "website": null, "booking_url": null, "facebook_username": null}, "address_components": {"address": "1 Tuen Lung Street, Shop 3282, Tuen Mun", "city": null, "postal_code": null, "province": null, "country": "CN"}, "activities": [{"sport_id": 78, "photo_reference": null, "booking_url": null, "title": null, "user": {"identifier": "HRAKOT22", "first_name": "Heri", "last_name": "Heri", "ambassador": true, "staff": true, "admin": true}, "image": null, "tags": [], "attributes": []}], "reviews": [], "notes": null, "photo_reference": null, "updated_at": "2020-06-22 21:13:03 UTC", "created_at": "2020-03-17 16:56:10 UTC", "attachments": [], "quality_indicator": 1, "featured": false, "featured_by": null}, "geometry": {"type": "Linestring", "coordinates": [[113.97702208196387, 22.393082753946487, 0.0], [113.97706633841267, 22.39292643145231, 0.0], [113.97744452988383, 22.393019470577542, 0.0], [113.97740027343508, 22.39317579307172, 0.0], [113.97702208196387, 22.393082753946487, 0.0]]}}, {"type": "Feature", "properties": {"uuid": "3f926367-0076-4924-85a3-e9879748e23d", "name": "Under review, proposed: C C C But San Primary School", "slug": "c-c-c-but-san-primary-school", "proximity": 0.43631503446, "user": {"identifier": "HRAKOT22", "first_name": "Heri", "last_name": "Heri", "ambassador": true, "staff": true, "admin": true}, "partner": null, "partner_identifier": null, "google_place_id": null, "contact_details": {"email": null, "phone": null, "website": null, "booking_url": null, "facebook_username": null}, "address_components": {"address": "28 Castle Peak Road (San Hui), San Hui", "city": null, "postal_code": null, "province": null, "country": "CN"}, "activities": [{"sport_id": 78, "photo_reference": null, "booking_url": null, "title": null, "user": {"identifier": "HRAKOT22", "first_name": "Heri", "last_name": "Heri", "ambassador": true, "staff": true, "admin": true}, "image": null, "tags": [], "attributes": []}], "reviews": [], "notes": null, "photo_reference": null, "updated_at": "2020-06-22 20:47:55 UTC", "created_at": "2020-03-17 13:32:28 UTC", "attachments": [], "quality_indicator": 1, "featured": false, "featured_by": null}, "geometry": {"type": "Linestring", "coordinates": [[113.97782389482148, 22.39704135917728, 0.0], [113.97787267749794, 22.396779424703112, 0.0], [113.97801508603288, 22.396802139660707, 0.0], [113.97796621953734, 22.397064074134875, 0.0], [113.97782389482148, 22.39704135917728, 0.0]]}}, {"type": "Feature", "properties": {"uuid": "d6ecda60-c718-4b8c-a97f-f31d44183809", "name": "Tuen Mun Town Plaza Phase 1 Car Park", "slug": "tuen-mun-town-plaza-phase-1-car-park", "proximity": 0.45606265171, "user": {"identifier": "HRAKOT22", "first_name": "Heri", "last_name": "Heri", "ambassador": true, "staff": true, "admin": true}, "partner": null, "partner_identifier": null, "google_place_id": null, "contact_details": {"email": null, "phone": null, "website": null, "booking_url": null, "facebook_username": null}, "address_components": {"address": "\u5c6f\u767c\u8def", "city": null, "postal_code": null, "province": null, "country": "CN"}, "activities": [{"sport_id": 134, "photo_reference": null, "booking_url": null, "title": null, "user": {"identifier": "HRAKOT22", "first_name": "Heri", "last_name": "Heri", "ambassador": true, "staff": true, "admin": true}, "image": null, "tags": [], "attributes": []}], "reviews": [], "notes": null, "photo_reference": null, "updated_at": "2020-06-22 21:13:03 UTC", "created_at": "2020-03-17 16:56:11 UTC", "attachments": [], "quality_indicator": 1, "featured": false, "featured_by": null}, "geometry": {"type": "Linestring", "coordinates": [[113.97742709552523, 22.393198088934156, 0.0], [113.97758936917069, 22.393235220765206, 0.0], [113.97768324648621, 22.39291905537752, 0.0], [113.97751569224175, 22.392883097012884, 0.0], [113.97742709552523, 22.393198088934156, 0.0]]}}]}}